ScoreIn,ScoreOut,dicoIndicateurPickle,NombreDeTest,regressionPickle,pcaPickle
0.993199713672,0.990336435218,C:\Users\Mourougan\Stage\Log\Indicateur\Assis\Assis1438351648.51.p,44
0.938108985926,0.922577152139,C:\Users\Mourougan\Stage\Log\Indicateur\Assis\Assis1438351768.06.p,44,C:\Users\Mourougan\Stage\Log\Regression\Assis\Assis1438351768.06.p,C:\Users\Mourougan\Stage\Log\Pca\Assis\Assis1438351768.06.p
0.959778333929,0.789059706829,C:\Users\Mourougan\Stage\Log\Indicateur\Assis\Assis1438351800.79.p,44,C:\Users\Mourougan\Stage\Log\Regression\Assis\Assis1438351800.79.p,C:\Users\Mourougan\Stage\Log\Pca\Assis\Assis1438351800.79.p
0.920328688817,0.917291889961,C:\Users\Mourougan\Stage\Log\Indicateur\Assis\Assis1438352039.15.p,44,C:\Users\Mourougan\Stage\Log\Regression\Assis\Assis1438352039.15.p,C:\Users\Mourougan\Stage\Log\Pca\Assis\Assis1438352039.15.p
0.923133913688,0.960355687292,C:\Users\Mourougan\Stage\Log\Indicateur\Assis\Assis1438352055.98.p,44,C:\Users\Mourougan\Stage\Log\Regression\Assis\Assis1438352055.98.p,C:\Users\Mourougan\Stage\Log\Pca\Assis\Assis1438352055.98.p
0.960952026776,0.987913722573,C:\Users\Mourougan\Stage\Log\Indicateur\Assis\Assis1438352070.78.p,44,C:\Users\Mourougan\Stage\Log\Regression\Assis\Assis1438352070.78.p,C:\Users\Mourougan\Stage\Log\Pca\Assis\Assis1438352070.78.p
0.995991601451,0.912371134021,C:\Users\Mourougan\Stage\Log\Indicateur\Assis\Assis1438358303.64.p,44,C:\Users\Mourougan\Stage\Log\Regression\Assis\Assis1438358303.64.p,C:\Users\Mourougan\Stage\Log\Pca\Assis\Assis1438358303.64.p
0.866444400863,0.908003138486,C:\Users\Mourougan\Stage\Log\Indicateur\Assis\Assis1438360238.89.p,44,C:\Users\Mourougan\Stage\Log\Regression\Assis\Assis1438360238.89.p,C:\Users\Mourougan\Stage\Log\Pca\Assis\Assis1438360238.89.p
0.882994732882,0.850799623706,C:\Users\Mourougan\Stage\Log\Indicateur\Assis\Assis1438360259.96.p,44,C:\Users\Mourougan\Stage\Log\Regression\Assis\Assis1438360259.96.p,C:\Users\Mourougan\Stage\Log\Pca\Assis\Assis1438360259.96.p
0.918806509946,0.951890034364,C:\Users\Mourougan\Stage\Log\Indicateur\Assis\Assis1438360285.57.p,44,C:\Users\Mourougan\Stage\Log\Regression\Assis\Assis1438360285.57.p,C:\Users\Mourougan\Stage\Log\Pca\Assis\Assis1438360285.57.p
0.918555371292,0.883155178769,C:\Users\Mourougan\Stage\Log\Indicateur\Assis\Assis1438590601.84.p,44,C:\Users\Mourougan\Stage\Log\Regression\Assis\Assis1438590601.84.p,C:\Users\Mourougan\Stage\Log\Pca\Assis\Assis1438590601.84.p
0.9517267697,0.999427480916,C:\Users\Mourougan\Stage\Log\Indicateur\Assis\Assis1438590617.82.p,44,C:\Users\Mourougan\Stage\Log\Regression\Assis\Assis1438590617.82.p,C:\Users\Mourougan\Stage\Log\Pca\Assis\Assis1438590617.82.p
0.990102639296,0.894592117324,C:\Users\Mourougan\Stage\Log\Indicateur\Assis\Assis1438595511.43.p,44,C:\Users\Mourougan\Stage\Log\Regression\Assis\Assis1438595511.43.p,C:\Users\Mourougan\Stage\Log\Pca\Assis\Assis1438595511.43.p
0.860970873786,0.832006214799,C:\Users\Mourougan\Stage\Log\Indicateur\Assis\Assis1438595933.96.p,44,C:\Users\Mourougan\Stage\Log\Regression\Assis\Assis1438595933.96.p,C:\Users\Mourougan\Stage\Log\Pca\Assis\Assis1438595933.96.p
0.920952207887,0.980374341268,C:\Users\Mourougan\Stage\Log\Indicateur\Assis\Assis1438598680.6.p,44,C:\Users\Mourougan\Stage\Log\Regression\Assis\Assis1438598680.6.p,C:\Users\Mourougan\Stage\Log\Pca\Assis\Assis1438598680.6.p
0.976524953789,0.958772416343,C:\Users\Mourougan\Stage\Log\Indicateur\Assis\Assis1438598742.81.p,44,C:\Users\Mourougan\Stage\Log\Regression\Assis\Assis1438598742.81.p,C:\Users\Mourougan\Stage\Log\Pca\Assis\Assis1438598742.81.p
0.9624217119,0.924134330955,C:\Users\Mourougan\Stage\Log\Indicateur\Assis\Assis1438599194.99.p,44,C:\Users\Mourougan\Stage\Log\Regression\Assis\Assis1438599194.99.p,C:\Users\Mourougan\Stage\Log\Pca\Assis\Assis1438599194.99.p
0.902429618203,0.945622830698,C:\Users\Mourougan\Stage\Log\Indicateur\Assis\Assis1438600007.19.p,44,C:\Users\Mourougan\Stage\Log\Regression\Assis\Assis1438600007.19.p,C:\Users\Mourougan\Stage\Log\Pca\Assis\Assis1438600007.19.p
0.93696110366,0.999041962062,C:\Users\Mourougan\Stage\Log\Indicateur\Assis\Assis1438600337.98.p,44,C:\Users\Mourougan\Stage\Log\Regression\Assis\Assis1438600337.98.p,C:\Users\Mourougan\Stage\Log\Pca\Assis\Assis1438600337.98.p
0.832835820896,0.916044776119,C:\Users\Mourougan\Stage\Log\Indicateur\Assis\Assis1438600451.12.p,44,C:\Users\Mourougan\Stage\Log\Regression\Assis\Assis1438600451.12.p,C:\Users\Mourougan\Stage\Log\Pca\Assis\Assis1438600451.12.p
0.954271081032,0.912550311014,C:\Users\Mourougan\Stage\Log\Indicateur\Assis\Assis1438600548.33.p,44,C:\Users\Mourougan\Stage\Log\Regression\Assis\Assis1438600548.33.p,C:\Users\Mourougan\Stage\Log\Pca\Assis\Assis1438600548.33.p
0.956496407069,0.863662847155,C:\Users\Mourougan\Stage\Log\Indicateur\Assis\Assis1438600616.17.p,44,C:\Users\Mourougan\Stage\Log\Regression\Assis\Assis1438600616.17.p,C:\Users\Mourougan\Stage\Log\Pca\Assis\Assis1438600616.17.p
0.961111111111,0.913793103448,C:\Users\Mourougan\Stage\Log\Indicateur\Assis\Assis1438600750.76.p,44,C:\Users\Mourougan\Stage\Log\Regression\Assis\Assis1438600750.76.p,C:\Users\Mourougan\Stage\Log\Pca\Assis\Assis1438600750.76.p
0.989684702219,0.932074737252,C:\Users\Mourougan\Stage\Log\Indicateur\Assis\Assis1438602339.59.p,44,C:\Users\Mourougan\Stage\Log\Regression\Assis\Assis1438602339.59.p,C:\Users\Mourougan\Stage\Log\Pca\Assis\Assis1438602339.59.p
0.900539707016,0.905744024672,C:\Users\Mourougan\Stage\Log\Indicateur\Assis\Assis1438602505.12.p,44,C:\Users\Mourougan\Stage\Log\Regression\Assis\Assis1438602505.12.p,C:\Users\Mourougan\Stage\Log\Pca\Assis\Assis1438602505.12.p
0.885491834409,0.927065527066,C:\Users\Mourougan\Stage\Log\Indicateur\Assis\Assis1438602654.35.p,44,C:\Users\Mourougan\Stage\Log\Regression\Assis\Assis1438602654.35.p,C:\Users\Mourougan\Stage\Log\Pca\Assis\Assis1438602654.35.p
0.971937808115,0.917883557747,C:\Users\Mourougan\Stage\Log\Indicateur\Assis\Assis1438603275.74.p,44,C:\Users\Mourougan\Stage\Log\Regression\Assis\Assis1438603275.74.p,C:\Users\Mourougan\Stage\Log\Pca\Assis\Assis1438603275.74.p
0.840555555556,0.950740740741,C:\Users\Mourougan\Stage\Log\Indicateur\Assis\Assis1438603343.13.p,44,C:\Users\Mourougan\Stage\Log\Regression\Assis\Assis1438603343.13.p,C:\Users\Mourougan\Stage\Log\Pca\Assis\Assis1438603343.13.p
0.869067405355,0.956232686981,C:\Users\Mourougan\Stage\Log\Indicateur\Assis\Assis1438603384.84.p,44,C:\Users\Mourougan\Stage\Log\Regression\Assis\Assis1438603384.84.p,C:\Users\Mourougan\Stage\Log\Pca\Assis\Assis1438603384.84.p
0.893376722818,0.941424196018,C:\Users\Mourougan\Stage\Log\Indicateur\Assis\Assis1438696343.22.p,44,C:\Users\Mourougan\Stage\Log\Regression\Assis\Assis1438696343.22.p,C:\Users\Mourougan\Stage\Log\Pca\Assis\Assis1438696343.22.p
0.875809735332,0.818030359126,C:\Users\Mourougan\Stage\Log\Indicateur\Assis\Assis1438696421.56.p,44,C:\Users\Mourougan\Stage\Log\Regression\Assis\Assis1438696421.56.p,C:\Users\Mourougan\Stage\Log\Pca\Assis\Assis1438696421.56.p
0.887749393996,0.834390152928,C:\Users\Mourougan\Stage\Log\Indicateur\Assis\Assis1438697054.99.p,44,C:\Users\Mourougan\Stage\Log\Regression\Assis\Assis1438697054.99.p,C:\Users\Mourougan\Stage\Log\Pca\Assis\Assis1438697054.99.p
0.833948339483,0.868686868687,C:\Users\Mourougan\Stage\Log\Indicateur\Assis\Assis1438697164.13.p,44,C:\Users\Mourougan\Stage\Log\Regression\Assis\Assis1438697164.13.p,C:\Users\Mourougan\Stage\Log\Pca\Assis\Assis1438697164.13.p
0.892460549386,0.887979738944,C:\Users\Mourougan\Stage\Log\Indicateur\Assis\Assis1438697226.81.p,44,C:\Users\Mourougan\Stage\Log\Regression\Assis\Assis1438697226.81.p,C:\Users\Mourougan\Stage\Log\Pca\Assis\Assis1438697226.81.p
0.79378586978,0.940827231348,C:\Users\Mourougan\Stage\Log\Indicateur\Assis\Assis1438697291.96.p,44,C:\Users\Mourougan\Stage\Log\Regression\Assis\Assis1438697291.96.p,C:\Users\Mourougan\Stage\Log\Pca\Assis\Assis1438697291.96.p
0.784730195178,0.878874856487,C:\Users\Mourougan\Stage\Log\Indicateur\Assis\Assis1438697303.78.p,44,C:\Users\Mourougan\Stage\Log\Regression\Assis\Assis1438697303.78.p,C:\Users\Mourougan\Stage\Log\Pca\Assis\Assis1438697303.78.p
0.977152567976,0.844948064212,C:\Users\Mourougan\Stage\Log\Indicateur\Assis\Assis1438704240.39.p,44,C:\Users\Mourougan\Stage\Log\Regression\Assis\Assis1438704240.39.p,C:\Users\Mourougan\Stage\Log\Pca\Assis\Assis1438704240.39.p
0.789391878764,0.998445696522,C:\Users\Mourougan\Stage\Log\Indicateur\Assis\Assis1438769163.6.p,44,C:\Users\Mourougan\Stage\Log\Regression\Assis\Assis1438769163.6.p,C:\Users\Mourougan\Stage\Log\Pca\Assis\Assis1438769163.6.p
0.84601043997,0.638888888889,C:\Users\Mourougan\Stage\Log\Indicateur\Assis\Assis1438769225.81.p,44,C:\Users\Mourougan\Stage\Log\Regression\Assis\Assis1438769225.81.p,C:\Users\Mourougan\Stage\Log\Pca\Assis\Assis1438769225.81.p
0.810868304003,0.897098646035,C:\Users\Mourougan\Stage\Log\Indicateur\Assis\Assis1438769247.11.p,44,C:\Users\Mourougan\Stage\Log\Regression\Assis\Assis1438769247.11.p,C:\Users\Mourougan\Stage\Log\Pca\Assis\Assis1438769247.11.p
0.800421779141,0.912943432407,C:\Users\Mourougan\Stage\Log\Indicateur\Assis\Assis1438769273.24.p,44,C:\Users\Mourougan\Stage\Log\Regression\Assis\Assis1438769273.24.p,C:\Users\Mourougan\Stage\Log\Pca\Assis\Assis1438769273.24.p
0.974041069353,0.871561410306,C:\Users\Mourougan\Stage\Log\Indicateur\Assis\Assis1438770846.13.p,44,C:\Users\Mourougan\Stage\Log\Regression\Assis\Assis1438770846.13.p,C:\Users\Mourougan\Stage\Log\Pca\Assis\Assis1438770846.13.p
0.950504658385,0.95826863354,C:\Users\Mourougan\Stage\Log\Indicateur\Assis\Assis1438771423.95.p,44,C:\Users\Mourougan\Stage\Log\Regression\Assis\Assis1438771423.95.p,C:\Users\Mourougan\Stage\Log\Pca\Assis\Assis1438771423.95.p
0.791603343465,0.948698460954,C:\Users\Mourougan\Stage\Log\Indicateur\Assis\Assis1438771530.87.p,44,C:\Users\Mourougan\Stage\Log\Regression\Assis\Assis1438771530.87.p,C:\Users\Mourougan\Stage\Log\Pca\Assis\Assis1438771530.87.p
0.903003634972,0.918691409987,C:\Users\Mourougan\Stage\Log\Indicateur\Assis\Assis1438772064.37.p,44,C:\Users\Mourougan\Stage\Log\Regression\Assis\Assis1438772064.37.p,C:\Users\Mourougan\Stage\Log\Pca\Assis\Assis1438772064.37.p
0.827420324714,0.884546001203,C:\Users\Mourougan\Stage\Log\Indicateur\Assis\Assis1438774450.6.p,44,C:\Users\Mourougan\Stage\Log\Regression\Assis\Assis1438774450.6.p,C:\Users\Mourougan\Stage\Log\Pca\Assis\Assis1438774450.6.p
0.850884244373,0.949949748744,C:\Users\Mourougan\Stage\Log\Indicateur\Assis\Assis1438774501.45.p,44,C:\Users\Mourougan\Stage\Log\Regression\Assis\Assis1438774501.45.p,C:\Users\Mourougan\Stage\Log\Pca\Assis\Assis1438774501.45.p
0.960847701149,0.919181034483,C:\Users\Mourougan\Stage\Log\Indicateur\Assis\Assis1438774514.98.p,44,C:\Users\Mourougan\Stage\Log\Regression\Assis\Assis1438774514.98.p,C:\Users\Mourougan\Stage\Log\Pca\Assis\Assis1438774514.98.p
0.856664807585,0.732986240238,C:\Users\Mourougan\Stage\Log\Indicateur\Assis\Assis1438774787.14.p,44,C:\Users\Mourougan\Stage\Log\Regression\Assis\Assis1438774787.14.p,C:\Users\Mourougan\Stage\Log\Pca\Assis\Assis1438774787.14.p
0.914624808576,0.812404287902,C:\Users\Mourougan\Stage\Log\Indicateur\Assis\Assis1438777748.67.p,44,C:\Users\Mourougan\Stage\Log\Regression\Assis\Assis1438777748.67.p,C:\Users\Mourougan\Stage\Log\Pca\Assis\Assis1438777748.67.p
0.960477401683,0.906084914889,C:\Users\Mourougan\Stage\Log\Indicateur\Assis\Assis1438777790.03.p,44,C:\Users\Mourougan\Stage\Log\Regression\Assis\Assis1438777790.03.p,C:\Users\Mourougan\Stage\Log\Pca\Assis\Assis1438777790.03.p
0.879616689958,0.75678913738,C:\Users\Mourougan\Stage\Log\Indicateur\Assis\Assis1438779968.05.p,44,C:\Users\Mourougan\Stage\Log\Regression\Assis\Assis1438779968.05.p,C:\Users\Mourougan\Stage\Log\Pca\Assis\Assis1438779968.05.p
0.800117118876,0.713253952762,C:\Users\Mourougan\Stage\Log\Indicateur\Assis\Assis1438780732.25.p,44,C:\Users\Mourougan\Stage\Log\Regression\Assis\Assis1438780732.25.p,C:\Users\Mourougan\Stage\Log\Pca\Assis\Assis1438780732.25.p
0.958771060456,0.915956392468,C:\Users\Mourougan\Stage\Log\Indicateur\Assis\Assis1438780768.07.p,44,C:\Users\Mourougan\Stage\Log\Regression\Assis\Assis1438780768.07.p,C:\Users\Mourougan\Stage\Log\Pca\Assis\Assis1438780768.07.p
0.915011459129,0.863827349121,C:\Users\Mourougan\Stage\Log\Indicateur\Assis\Assis1438780801.86.p,44,C:\Users\Mourougan\Stage\Log\Regression\Assis\Assis1438780801.86.p,C:\Users\Mourougan\Stage\Log\Pca\Assis\Assis1438780801.86.p
0.978595057404,0.902491241728,C:\Users\Mourougan\Stage\Log\Indicateur\Assis\Assis1438781112.6.p,44,C:\Users\Mourougan\Stage\Log\Regression\Assis\Assis1438781112.6.p,C:\Users\Mourougan\Stage\Log\Pca\Assis\Assis1438781112.6.p
0.888219947823,0.916516154927,C:\Users\Mourougan\Stage\Log\Indicateur\Assis\Assis1438781240.55.p,44,C:\Users\Mourougan\Stage\Log\Regression\Assis\Assis1438781240.55.p,C:\Users\Mourougan\Stage\Log\Pca\Assis\Assis1438781240.55.p
0.920214669052,0.837716943997,C:\Users\Mourougan\Stage\Log\Indicateur\Assis\Assis1438961187.71.p,46,C:\Users\Mourougan\Stage\Log\Regression\Assis\Assis1438961187.71.p,C:\Users\Mourougan\Stage\Log\Pca\Assis\Assis1438961187.71.p
0.708591674048,0.554472984942,C:\Users\Mourougan\Stage\Log\Indicateur\Assis\Assis1439218320.8.p,46,C:\Users\Mourougan\Stage\Log\Regression\Assis\Assis1439218320.8.p,C:\Users\Mourougan\Stage\Log\Pca\Assis\Assis1439218320.8.p
1.0,0.832023575639,C:\Users\Mourougan\Stage\Log\Indicateur\Assis\Assis1439290868.31.p,10,C:\Users\Mourougan\Stage\Log\Regression\Assis\Assis1439290868.31.p,C:\Users\Mourougan\Stage\Log\Pca\Assis\Assis1439290868.31.p
1.0,1.0,C:\Users\Mourougan\Stage\Log\Indicateur\Assis\Assis1439290909.49.p,10,C:\Users\Mourougan\Stage\Log\Regression\Assis\Assis1439290909.49.p,C:\Users\Mourougan\Stage\Log\Pca\Assis\Assis1439290909.49.p
1.0,1.0,C:\Users\Mourougan\Stage\Log\Indicateur\Assis\Assis1439290919.29.p,10,C:\Users\Mourougan\Stage\Log\Regression\Assis\Assis1439290919.29.p,C:\Users\Mourougan\Stage\Log\Pca\Assis\Assis1439290919.29.p
0.955392809587,0.780292942743,C:\Users\Mourougan\Stage\Log\Indicateur\Assis\Assis1439291028.78.p,36,C:\Users\Mourougan\Stage\Log\Regression\Assis\Assis1439291028.78.p,C:\Users\Mourougan\Stage\Log\Pca\Assis\Assis1439291028.78.p
0.704005431093,0.893188504186,C:\Users\Mourougan\Stage\Log\Indicateur\Assis\Assis1439295023.41.p,36,C:\Users\Mourougan\Stage\Log\Regression\Assis\Assis1439295023.41.p,C:\Users\Mourougan\Stage\Log\Pca\Assis\Assis1439295023.41.p
0.813978265502,0.896015341999,C:\Users\Mourougan\Stage\Log\Indicateur\Assis\Assis1439299763.45.p,36,C:\Users\Mourougan\Stage\Log\Regression\Assis\Assis1439299763.45.p,C:\Users\Mourougan\Stage\Log\Pca\Assis\Assis1439299763.45.p
0.703678627849,0.837923250564,C:\Users\Mourougan\Stage\Log\Indicateur\Assis\Assis1439300072.23.p,36,C:\Users\Mourougan\Stage\Log\Regression\Assis\Assis1439300072.23.p,C:\Users\Mourougan\Stage\Log\Pca\Assis\Assis1439300072.23.p
0.946466356327,0.825010579771,C:\Users\Mourougan\Stage\Log\Indicateur\Assis\Assis1439300298.74.p,36,C:\Users\Mourougan\Stage\Log\Regression\Assis\Assis1439300298.74.p,C:\Users\Mourougan\Stage\Log\Pca\Assis\Assis1439300298.74.p
0.895800227015,0.894438138479,C:\Users\Mourougan\Stage\Log\Indicateur\Assis\Assis1439300619.53.p,36,C:\Users\Mourougan\Stage\Log\Regression\Assis\Assis1439300619.53.p,C:\Users\Mourougan\Stage\Log\Pca\Assis\Assis1439300619.53.p
0.865856454942,0.775,C:\Users\Mourougan\Dropbox\GUI\Log\Indicateur\Assis\Assis1440148511.03.p,36,C:\Users\Mourougan\Dropbox\GUI\Log\Regression\Assis\Assis1440148511.03.p,C:\Users\Mourougan\Dropbox\GUI\Log\Pca\Assis\Assis1440148511.03.p
0.97022701898,0.721622627466,C:\Users\Mourougan\Dropbox\GUI\Log\Indicateur\Assis\Assis1440148516.63.p,36,C:\Users\Mourougan\Dropbox\GUI\Log\Regression\Assis\Assis1440148516.63.p,C:\Users\Mourougan\Dropbox\GUI\Log\Pca\Assis\Assis1440148516.63.p
0.866208439898,0.934942455243,C:\Users\Mourougan\Dropbox\GUI\Log\Indicateur\Assis\Assis1440151966.68.p,36,C:\Users\Mourougan\Dropbox\GUI\Log\Regression\Assis\Assis1440151966.68.p,C:\Users\Mourougan\Dropbox\GUI\Log\Pca\Assis\Assis1440151966.68.p
-0.244330498468,-0.722496039596,C:\Users\Tarik\Dropbox\GUI\Log\Indicateur\Assis\Assis1440584758.07.p,54,C:\Users\Tarik\Dropbox\GUI\Log\Regression\Assis\Assis1440584758.07.p,C:\Users\Tarik\Dropbox\GUI\Log\Pca\Assis\Assis1440584758.07.p
-0.352632707037,-0.502371061648,C:\Users\Tarik\Dropbox\GUI\Log\Indicateur\Assis\Assis1440586706.23.p,54,C:\Users\Tarik\Dropbox\GUI\Log\Regression\Assis\Assis1440586706.23.p,C:\Users\Tarik\Dropbox\GUI\Log\Pca\Assis\Assis1440586706.23.p
0.913583990297,0.804852160728,C:\Users\Tarik\Dropbox\GUI\Log\Indicateur\Assis\Assis1440589165.14.p,54,C:\Users\Tarik\Dropbox\GUI\Log\Regression\Assis\Assis1440589165.14.p,C:\Users\Tarik\Dropbox\GUI\Log\Pca\Assis\Assis1440589165.14.p
-0.199175388519,-0.321281319378,C:\Users\Mourougan\Dropbox\GUI\Log\Indicateur\Assis\Assis1440594212.65.p,54,C:\Users\Mourougan\Dropbox\GUI\Log\Regression\Assis\Assis1440594212.65.p,C:\Users\Mourougan\Dropbox\GUI\Log\Pca\Assis\Assis1440594212.65.p
-0.157827881867,-0.4013022074,C:\Users\Mourougan\Dropbox\GUI\Log\Indicateur\Assis\Assis1440598462.69.p,54,C:\Users\Mourougan\Dropbox\GUI\Log\Regression\Assis\Assis1440598462.69.p,C:\Users\Mourougan\Dropbox\GUI\Log\Pca\Assis\Assis1440598462.69.p
-0.0377792378449,-0.541721419185,C:\Users\Mourougan\Dropbox\GUI\Log\Indicateur\Assis\Assis1440598480.1.p,54,C:\Users\Mourougan\Dropbox\GUI\Log\Regression\Assis\Assis1440598480.1.p,C:\Users\Mourougan\Dropbox\GUI\Log\Pca\Assis\Assis1440598480.1.p
-0.0645865834633,-0.208424336973,C:\Users\Mourougan\Dropbox\GUI\Log\Indicateur\Assis\Assis1440598504.14.p,54,C:\Users\Mourougan\Dropbox\GUI\Log\Regression\Assis\Assis1440598504.14.p,C:\Users\Mourougan\Dropbox\GUI\Log\Pca\Assis\Assis1440598504.14.p
-0.344578313253,-0.226863753213,C:\Users\Mourougan\Dropbox\GUI\Log\Indicateur\Assis\Assis1440598706.47.p,54,C:\Users\Mourougan\Dropbox\GUI\Log\Regression\Assis\Assis1440598706.47.p,C:\Users\Mourougan\Dropbox\GUI\Log\Pca\Assis\Assis1440598706.47.p
0.5,0.5,C:\Users\Mourougan\Dropbox\GUI\Log\Indicateur\Assis\Assis1440598966.55.p,54,C:\Users\Mourougan\Dropbox\GUI\Log\Regression\Assis\Assis1440598966.55.p,C:\Users\Mourougan\Dropbox\GUI\Log\Pca\Assis\Assis1440598966.55.p
0.5,0.5,C:\Users\Mourougan\Dropbox\GUI\Log\Indicateur\Assis\Assis1440599000.79.p,54,C:\Users\Mourougan\Dropbox\GUI\Log\Regression\Assis\Assis1440599000.79.p,C:\Users\Mourougan\Dropbox\GUI\Log\Pca\Assis\Assis1440599000.79.p
0.5,0.5,C:\Users\Mourougan\Dropbox\GUI\Log\Indicateur\Assis\Assis1440599006.99.p,54,C:\Users\Mourougan\Dropbox\GUI\Log\Regression\Assis\Assis1440599006.99.p,C:\Users\Mourougan\Dropbox\GUI\Log\Pca\Assis\Assis1440599006.99.p
0.5,0.5,C:\Users\Mourougan\Dropbox\GUI\Log\Indicateur\Assis\Assis1440599943.99.p,64,C:\Users\Mourougan\Dropbox\GUI\Log\Regression\Assis\Assis1440599943.99.p,C:\Users\Mourougan\Dropbox\GUI\Log\Pca\Assis\Assis1440599943.99.p
0.5,0.5,C:\Users\Mourougan\Dropbox\GUI\Log\Indicateur\Assis\Assis1440600750.44.p,68,C:\Users\Mourougan\Dropbox\GUI\Log\Regression\Assis\Assis1440600750.44.p,C:\Users\Mourougan\Dropbox\GUI\Log\Pca\Assis\Assis1440600750.44.p
0.5,0.5,C:\Users\Mourougan\Dropbox\GUI\Log\Indicateur\Assis\Assis1440600802.78.p,8,C:\Users\Mourougan\Dropbox\GUI\Log\Regression\Assis\Assis1440600802.78.p,C:\Users\Mourougan\Dropbox\GUI\Log\Pca\Assis\Assis1440600802.78.p
0.5,0.5,C:\Users\Mourougan\Dropbox\GUI\Log\Indicateur\Assis\Assis1440600803.62.p,8,C:\Users\Mourougan\Dropbox\GUI\Log\Regression\Assis\Assis1440600803.62.p,C:\Users\Mourougan\Dropbox\GUI\Log\Pca\Assis\Assis1440600803.62.p
0.5,0.5,C:\Users\Mourougan\Dropbox\GUI\Log\Indicateur\Assis\Assis1440600804.4.p,8,C:\Users\Mourougan\Dropbox\GUI\Log\Regression\Assis\Assis1440600804.4.p,C:\Users\Mourougan\Dropbox\GUI\Log\Pca\Assis\Assis1440600804.4.p
0.5,0.5,C:\Users\Mourougan\Dropbox\GUI\Log\Indicateur\Assis\Assis1440600988.64.p,58,C:\Users\Mourougan\Dropbox\GUI\Log\Regression\Assis\Assis1440600988.64.p,C:\Users\Mourougan\Dropbox\GUI\Log\Pca\Assis\Assis1440600988.64.p
0.5,0.5,C:\Users\Mourougan\Dropbox\GUI\Log\Indicateur\Assis\Assis1440601096.08.p,58,C:\Users\Mourougan\Dropbox\GUI\Log\Regression\Assis\Assis1440601096.08.p,C:\Users\Mourougan\Dropbox\GUI\Log\Pca\Assis\Assis1440601096.08.p
0.5,0.5,C:\Users\Mourougan\Dropbox\GUI\Log\Indicateur\Assis\Assis1440601110.35.p,68,C:\Users\Mourougan\Dropbox\GUI\Log\Regression\Assis\Assis1440601110.35.p,C:\Users\Mourougan\Dropbox\GUI\Log\Pca\Assis\Assis1440601110.35.p
0.5,0.5,C:\Users\Mourougan\Dropbox\GUI\Log\Indicateur\Assis\Assis1440606070.63.p,68,C:\Users\Mourougan\Dropbox\GUI\Log\Regression\Assis\Assis1440606070.63.p,C:\Users\Mourougan\Dropbox\GUI\Log\Pca\Assis\Assis1440606070.63.p
0.5,0.5,C:\Users\Mourougan\Dropbox\GUI\Log\Indicateur\Assis\Assis1440606087.81.p,68,C:\Users\Mourougan\Dropbox\GUI\Log\Regression\Assis\Assis1440606087.81.p,C:\Users\Mourougan\Dropbox\GUI\Log\Pca\Assis\Assis1440606087.81.p
0.5,0.5,C:\Users\Mourougan\Dropbox\GUI\Log\Indicateur\Assis\Assis1440606105.76.p,68,C:\Users\Mourougan\Dropbox\GUI\Log\Regression\Assis\Assis1440606105.76.p,C:\Users\Mourougan\Dropbox\GUI\Log\Pca\Assis\Assis1440606105.76.p
0.5,0.5,C:\Users\Tarik\Dropbox\GUI\Log\Indicateur\Assis\Assis1440636253.79.p,68,C:\Users\Tarik\Dropbox\GUI\Log\Regression\Assis\Assis1440636253.79.p,C:\Users\Tarik\Dropbox\GUI\Log\Pca\Assis\Assis1440636253.79.p
0.5,0.5,C:\Users\Tarik\Dropbox\GUI\Log\Indicateur\Assis\Assis1440636467.37.p,68,C:\Users\Tarik\Dropbox\GUI\Log\Regression\Assis\Assis1440636467.37.p,C:\Users\Tarik\Dropbox\GUI\Log\Pca\Assis\Assis1440636467.37.p
0.5,0.5,C:\Users\Tarik\Dropbox\GUI\Log\Indicateur\Assis\Assis1440636497.28.p,68,C:\Users\Tarik\Dropbox\GUI\Log\Regression\Assis\Assis1440636497.28.p,C:\Users\Tarik\Dropbox\GUI\Log\Pca\Assis\Assis1440636497.28.p
0.5,0.5,C:\Users\Tarik\Dropbox\GUI\Log\Indicateur\Assis\Assis1440636584.05.p,58,C:\Users\Tarik\Dropbox\GUI\Log\Regression\Assis\Assis1440636584.05.p,C:\Users\Tarik\Dropbox\GUI\Log\Pca\Assis\Assis1440636584.05.p
0.5,0.5,C:\Users\Tarik\Dropbox\GUI\Log\Indicateur\Assis\Assis1440637172.15.p,8,C:\Users\Tarik\Dropbox\GUI\Log\Regression\Assis\Assis1440637172.15.p,C:\Users\Tarik\Dropbox\GUI\Log\Pca\Assis\Assis1440637172.15.p
0.5,0.5,C:\Users\Mourougan\Dropbox\GUI\Log\Indicateur\Assis\Assis1440662207.67.p,68,C:\Users\Mourougan\Dropbox\GUI\Log\Regression\Assis\Assis1440662207.67.p,C:\Users\Mourougan\Dropbox\GUI\Log\Pca\Assis\Assis1440662207.67.p
0.5,0.5,C:\Users\Mourougan\Dropbox\GUI\Log\Indicateur\Assis\Assis1440662332.14.p,68,C:\Users\Mourougan\Dropbox\GUI\Log\Regression\Assis\Assis1440662332.14.p,C:\Users\Mourougan\Dropbox\GUI\Log\Pca\Assis\Assis1440662332.14.p
0.5,0.5,C:\Users\Mourougan\Dropbox\GUI\Log\Indicateur\Assis\Assis1440662637.28.p,68,C:\Users\Mourougan\Dropbox\GUI\Log\Regression\Assis\Assis1440662637.28.p,C:\Users\Mourougan\Dropbox\GUI\Log\Pca\Assis\Assis1440662637.28.p
0.5,0.5,C:\Users\Mourougan\Dropbox\GUI\Log\Indicateur\Assis\Assis1440662739.22.p,68,C:\Users\Mourougan\Dropbox\GUI\Log\Regression\Assis\Assis1440662739.22.p,C:\Users\Mourougan\Dropbox\GUI\Log\Pca\Assis\Assis1440662739.22.p
0.5,0.5,C:\Users\Mourougan\Dropbox\GUI\Log\Indicateur\Assis\Assis1440663292.31.p,66,C:\Users\Mourougan\Dropbox\GUI\Log\Regression\Assis\Assis1440663292.31.p,C:\Users\Mourougan\Dropbox\GUI\Log\Pca\Assis\Assis1440663292.31.p
0.537454357741,0.5,C:\Users\Mourougan\Dropbox\GUI\Log\Indicateur\Assis\Assis1440663662.32.p,76,C:\Users\Mourougan\Dropbox\GUI\Log\Regression\Assis\Assis1440663662.32.p,C:\Users\Mourougan\Dropbox\GUI\Log\Pca\Assis\Assis1440663662.32.p
0.516479325711,0.5,C:\Users\Mourougan\Dropbox\GUI\Log\Indicateur\Assis\Assis1440663996.27.p,76,C:\Users\Mourougan\Dropbox\GUI\Log\Regression\Assis\Assis1440663996.27.p,C:\Users\Mourougan\Dropbox\GUI\Log\Pca\Assis\Assis1440663996.27.p
0.488435413767,0.5,C:\Users\Mourougan\Dropbox\GUI\Log\Indicateur\Assis\Assis1440665070.55.p,124,C:\Users\Mourougan\Dropbox\GUI\Log\Regression\Assis\Assis1440665070.55.p,C:\Users\Mourougan\Dropbox\GUI\Log\Pca\Assis\Assis1440665070.55.p
0.520114609987,0.5,C:\Users\Mourougan\Dropbox\GUI\Log\Indicateur\Assis\Assis1440667042.97.p,198,C:\Users\Mourougan\Dropbox\GUI\Log\Regression\Assis\Assis1440667042.97.p,C:\Users\Mourougan\Dropbox\GUI\Log\Pca\Assis\Assis1440667042.97.p
0.476067739788,0.5,C:\Users\Mourougan\Dropbox\GUI\Log\Indicateur\Assis\Assis1440669135.14.p,198,C:\Users\Mourougan\Dropbox\GUI\Log\Regression\Assis\Assis1440669135.14.p,C:\Users\Mourougan\Dropbox\GUI\Log\Pca\Assis\Assis1440669135.14.p
0.481773508529,0.5,C:\Users\Mourougan\Dropbox\GUI\Log\Indicateur\Assis\Assis1440669255.16.p,198,C:\Users\Mourougan\Dropbox\GUI\Log\Regression\Assis\Assis1440669255.16.p,C:\Users\Mourougan\Dropbox\GUI\Log\Pca\Assis\Assis1440669255.16.p
0.512807239292,0.5,C:\Users\Mourougan\Dropbox\GUI\Log\Indicateur\Assis\Assis1440669358.56.p,198,C:\Users\Mourougan\Dropbox\GUI\Log\Regression\Assis\Assis1440669358.56.p,C:\Users\Mourougan\Dropbox\GUI\Log\Pca\Assis\Assis1440669358.56.p
0.49024161059,0.5,C:\Users\Mourougan\Dropbox\GUI\Log\Indicateur\Assis\Assis1440669531.11.p,198,C:\Users\Mourougan\Dropbox\GUI\Log\Regression\Assis\Assis1440669531.11.p,C:\Users\Mourougan\Dropbox\GUI\Log\Pca\Assis\Assis1440669531.11.p
0.534266799744,0.5,C:\Users\Mourougan\Dropbox\GUI\Log\Indicateur\Assis\Assis1440669648.16.p,198,C:\Users\Mourougan\Dropbox\GUI\Log\Regression\Assis\Assis1440669648.16.p,C:\Users\Mourougan\Dropbox\GUI\Log\Pca\Assis\Assis1440669648.16.p
0.512034684585,0.5,C:\Users\Mourougan\Dropbox\GUI\Log\Indicateur\Assis\Assis1440670487.9.p,206,C:\Users\Mourougan\Dropbox\GUI\Log\Regression\Assis\Assis1440670487.9.p,C:\Users\Mourougan\Dropbox\GUI\Log\Pca\Assis\Assis1440670487.9.p
0.509825430361,0.5,C:\Users\Mourougan\Dropbox\GUI\Log\Indicateur\Assis\Assis1440670594.2.p,206,C:\Users\Mourougan\Dropbox\GUI\Log\Regression\Assis\Assis1440670594.2.p,C:\Users\Mourougan\Dropbox\GUI\Log\Pca\Assis\Assis1440670594.2.p
0.490320654305,0.5,C:\Users\Mourougan\Dropbox\GUI\Log\Indicateur\Assis\Assis1440676975.66.p,208,C:\Users\Mourougan\Dropbox\GUI\Log\Regression\Assis\Assis1440676975.66.p,C:\Users\Mourougan\Dropbox\GUI\Log\Pca\Assis\Assis1440676975.66.p
0.484772118791,0.5,C:\Users\Tarik\Dropbox\GUI\Log\Indicateur\Assis\Assis1440756238.32.p,208,C:\Users\Tarik\Dropbox\GUI\Log\Regression\Assis\Assis1440756238.32.p,C:\Users\Tarik\Dropbox\GUI\Log\Pca\Assis\Assis1440756238.32.p
0.536722084391,0.5,C:\Users\Tarik\Dropbox\GUI\Log\Indicateur\Assis\Assis1440756726.58.p,208,C:\Users\Tarik\Dropbox\GUI\Log\Regression\Assis\Assis1440756726.58.p,C:\Users\Tarik\Dropbox\GUI\Log\Pca\Assis\Assis1440756726.58.p
0.695919238488,0.5,C:\Users\Tarik\Dropbox\GUI\Log\Indicateur\Assis\Assis1440756794.34.p,10,C:\Users\Tarik\Dropbox\GUI\Log\Regression\Assis\Assis1440756794.34.p,C:\Users\Tarik\Dropbox\GUI\Log\Pca\Assis\Assis1440756794.34.p
0.532604264002,0.5,C:\Users\Tarik\Dropbox\GUI\Log\Indicateur\Assis\Assis1440756818.17.p,10,C:\Users\Tarik\Dropbox\GUI\Log\Regression\Assis\Assis1440756818.17.p,C:\Users\Tarik\Dropbox\GUI\Log\Pca\Assis\Assis1440756818.17.p
0.680399268321,0.5,C:\Users\Tarik\Dropbox\GUI\Log\Indicateur\Assis\Assis1440757193.84.p,10,C:\Users\Tarik\Dropbox\GUI\Log\Regression\Assis\Assis1440757193.84.p,C:\Users\Tarik\Dropbox\GUI\Log\Pca\Assis\Assis1440757193.84.p
0.511204874574,0.5,C:\Users\Tarik\Dropbox\GUI\Log\Indicateur\Assis\Assis1440757776.91.p,208,C:\Users\Tarik\Dropbox\GUI\Log\Regression\Assis\Assis1440757776.91.p,C:\Users\Tarik\Dropbox\GUI\Log\Pca\Assis\Assis1440757776.91.p
0.882206282843,0.90030686613,C:\Users\Tarik\Dropbox\GUI\Log\Indicateur\Assis\Assis1440757883.49.p,208,C:\Users\Tarik\Dropbox\GUI\Log\Regression\Assis\Assis1440757883.49.p,C:\Users\Tarik\Dropbox\GUI\Log\Pca\Assis\Assis1440757883.49.p
0.477223861013,0.5,C:\Users\Mourougan\Dropbox\GUI\Log\Indicateur\Assis\Assis1440774645.13.p,220,C:\Users\Mourougan\Dropbox\GUI\Log\Regression\Assis\Assis1440774645.13.p,C:\Users\Mourougan\Dropbox\GUI\Log\Pca\Assis\Assis1440774645.13.p
0.49800994689,0.5,C:\Users\Mourougan\Dropbox\GUI\Log\Indicateur\Assis\Assis1440774839.15.p,220,C:\Users\Mourougan\Dropbox\GUI\Log\Regression\Assis\Assis1440774839.15.p,C:\Users\Mourougan\Dropbox\GUI\Log\Pca\Assis\Assis1440774839.15.p
0.505229535929,0.5,C:\Users\Mourougan\Dropbox\GUI\Log\Indicateur\Assis\Assis1440775093.11.p,220,C:\Users\Mourougan\Dropbox\GUI\Log\Regression\Assis\Assis1440775093.11.p,C:\Users\Mourougan\Dropbox\GUI\Log\Pca\Assis\Assis1440775093.11.p
0.512250020697,0.5,C:\Users\Mourougan\Dropbox\GUI\Log\Indicateur\Assis\Assis1440775513.11.p,220,C:\Users\Mourougan\Dropbox\GUI\Log\Regression\Assis\Assis1440775513.11.p,C:\Users\Mourougan\Dropbox\GUI\Log\Pca\Assis\Assis1440775513.11.p
0.525993939142,0.5,C:\Users\Mourougan\Dropbox\GUI\Log\Indicateur\Assis\Assis1440776676.07.p,200,C:\Users\Mourougan\Dropbox\GUI\Log\Regression\Assis\Assis1440776676.07.p,C:\Users\Mourougan\Dropbox\GUI\Log\Pca\Assis\Assis1440776676.07.p
0.508800009054,0.5,C:\Users\Mourougan\Dropbox\GUI\Log\Indicateur\Assis\Assis1440776933.42.p,200,C:\Users\Mourougan\Dropbox\GUI\Log\Regression\Assis\Assis1440776933.42.p,C:\Users\Mourougan\Dropbox\GUI\Log\Pca\Assis\Assis1440776933.42.p
0.506999716754,0.5,C:\Users\Mourougan\Dropbox\GUI\Log\Indicateur\Assis\Assis1440777081.09.p,200,C:\Users\Mourougan\Dropbox\GUI\Log\Regression\Assis\Assis1440777081.09.p,C:\Users\Mourougan\Dropbox\GUI\Log\Pca\Assis\Assis1440777081.09.p
0.505465230609,0.5,C:\Users\Mourougan\Dropbox\GUI\Log\Indicateur\Assis\Assis1440777310.69.p,200,C:\Users\Mourougan\Dropbox\GUI\Log\Regression\Assis\Assis1440777310.69.p,C:\Users\Mourougan\Dropbox\GUI\Log\Pca\Assis\Assis1440777310.69.p
0.452436637926,0.5,C:\Users\Tarik\Dropbox\GUI\Log\Indicateur\Assis\Assis1440925453.6.p,210,C:\Users\Tarik\Dropbox\GUI\Log\Regression\Assis\Assis1440925453.6.p,C:\Users\Tarik\Dropbox\GUI\Log\Pca\Assis\Assis1440925453.6.p
0.526919469811,0.5,C:\Users\Tarik\Dropbox\GUI\Log\Indicateur\Assis\Assis1440925875.13.p,210,C:\Users\Tarik\Dropbox\GUI\Log\Regression\Assis\Assis1440925875.13.p,C:\Users\Tarik\Dropbox\GUI\Log\Pca\Assis\Assis1440925875.13.p
0.496877306379,0.5,C:\Users\Tarik\Dropbox\GUI\Log\Indicateur\Assis\Assis1440926389.86.p,210,C:\Users\Tarik\Dropbox\GUI\Log\Regression\Assis\Assis1440926389.86.p,C:\Users\Tarik\Dropbox\GUI\Log\Pca\Assis\Assis1440926389.86.p
0.493021241439,0.5,C:\Users\Tarik\Dropbox\GUI\Log\Indicateur\Assis\Assis1440926648.35.p,210,C:\Users\Tarik\Dropbox\GUI\Log\Regression\Assis\Assis1440926648.35.p,C:\Users\Tarik\Dropbox\GUI\Log\Pca\Assis\Assis1440926648.35.p
0.491225668065,0.5,C:\Users\Tarik\Dropbox\GUI\Log\Indicateur\Assis\Assis1440926821.44.p,210,C:\Users\Tarik\Dropbox\GUI\Log\Regression\Assis\Assis1440926821.44.p,C:\Users\Tarik\Dropbox\GUI\Log\Pca\Assis\Assis1440926821.44.p
0.483555971178,0.5,C:\Users\Tarik\Dropbox\GUI\Log\Indicateur\Assis\Assis1440926866.68.p,210,C:\Users\Tarik\Dropbox\GUI\Log\Regression\Assis\Assis1440926866.68.p,C:\Users\Tarik\Dropbox\GUI\Log\Pca\Assis\Assis1440926866.68.p
0.531912620078,0.5,C:\Users\Tarik\Dropbox\GUI\Log\Indicateur\Assis\Assis1440927072.55.p,210,C:\Users\Tarik\Dropbox\GUI\Log\Regression\Assis\Assis1440927072.55.p,C:\Users\Tarik\Dropbox\GUI\Log\Pca\Assis\Assis1440927072.55.p
0.519149600619,0.5,C:\Users\Tarik\Dropbox\GUI\Log\Indicateur\Assis\Assis1440927941.43.p,224,C:\Users\Tarik\Dropbox\GUI\Log\Regression\Assis\Assis1440927941.43.p,C:\Users\Tarik\Dropbox\GUI\Log\Pca\Assis\Assis1440927941.43.p
0.439724002071,0.5,C:\Users\Mourougan\Dropbox\GUI\Log\Indicateur\Assis\Assis1441007783.95.p,24,C:\Users\Mourougan\Dropbox\GUI\Log\Regression\Assis\Assis1441007783.95.p,C:\Users\Mourougan\Dropbox\GUI\Log\Pca\Assis\Assis1441007783.95.p
0.481976360466,0.5,C:\Users\Mourougan\Dropbox\GUI\Log\Indicateur\Assis\Assis1441028358.68.p,224,C:\Users\Mourougan\Dropbox\GUI\Log\Regression\Assis\Assis1441028358.68.p,C:\Users\Mourougan\Dropbox\GUI\Log\Pca\Assis\Assis1441028358.68.p
0.429484267905,0.5,C:\Users\Mourougan\Dropbox\GUI\Log\Indicateur\Assis\Assis1441028463.44.p,224,C:\Users\Mourougan\Dropbox\GUI\Log\Regression\Assis\Assis1441028463.44.p,C:\Users\Mourougan\Dropbox\GUI\Log\Pca\Assis\Assis1441028463.44.p
0.529179453172,0.5,C:\Users\Mourougan\Dropbox\GUI\Log\Indicateur\Assis\Assis1441028549.02.p,24,C:\Users\Mourougan\Dropbox\GUI\Log\Regression\Assis\Assis1441028549.02.p,C:\Users\Mourougan\Dropbox\GUI\Log\Pca\Assis\Assis1441028549.02.p
0.966938949324,0.945375711355,C:\Users\Mourougan\Dropbox\GUI\Log\Indicateur\Assis\Assis1441114735.51.p,200,C:\Users\Mourougan\Dropbox\GUI\Log\Regression\Assis\Assis1441114735.51.p,C:\Users\Mourougan\Dropbox\GUI\Log\Pca\Assis\Assis1441114735.51.p
0.840539191213,0.85641059779,C:\Users\Mourougan\Dropbox\GUI\Log\Indicateur\Assis\Assis1441114788.02.p,224,C:\Users\Mourougan\Dropbox\GUI\Log\Regression\Assis\Assis1441114788.02.p,C:\Users\Mourougan\Dropbox\GUI\Log\Pca\Assis\Assis1441114788.02.p
0.946935782649,0.963028712566,C:\Users\Mourougan\Dropbox\GUI\Log\Indicateur\Assis\Assis1441114904.27.p,200,C:\Users\Mourougan\Dropbox\GUI\Log\Regression\Assis\Assis1441114904.27.p,C:\Users\Mourougan\Dropbox\GUI\Log\Pca\Assis\Assis1441114904.27.p
0.968887686481,0.947128391435,C:\Users\Mourougan\Dropbox\GUI\Log\Indicateur\Assis\Assis1441114932.11.p,200,C:\Users\Mourougan\Dropbox\GUI\Log\Regression\Assis\Assis1441114932.11.p,C:\Users\Mourougan\Dropbox\GUI\Log\Pca\Assis\Assis1441114932.11.p
0.973049921997,0.936190959086,C:\Users\Mourougan\Dropbox\GUI\Log\Indicateur\Assis\Assis1441115004.12.p,200,C:\Users\Mourougan\Dropbox\GUI\Log\Regression\Assis\Assis1441115004.12.p,C:\Users\Mourougan\Dropbox\GUI\Log\Pca\Assis\Assis1441115004.12.p
0.968847595253,0.944329494437,C:\Users\Mourougan\Dropbox\GUI\Log\Indicateur\Assis\Assis1441181386.18.p,200,C:\Users\Mourougan\Dropbox\GUI\Log\Regression\Assis\Assis1441181386.18.p,C:\Users\Mourougan\Dropbox\GUI\Log\Pca\Assis\Assis1441181386.18.p
0.95744019882,0.938643159489,C:\Users\Mourougan\Dropbox\GUI\Log\Indicateur\Assis\Assis1441181707.89.p,200,C:\Users\Mourougan\Dropbox\GUI\Log\Regression\Assis\Assis1441181707.89.p,C:\Users\Mourougan\Dropbox\GUI\Log\Pca\Assis\Assis1441181707.89.p
0.991674967981,0.182296854988,C:\Users\Mourougan\Dropbox\GUI\Log\Indicateur\Assis\Assis1442311051.47.p,222,C:\Users\Mourougan\Dropbox\GUI\Log\Regression\Assis\Assis1442311051.47.p,C:\Users\Mourougan\Dropbox\GUI\Log\Pca\Assis\Assis1442311051.47.p
0.991674967981,0.182296854988,C:\Users\Mourougan\Dropbox\GUI\Log\Indicateur\Assis\Assis1442311779.56.p,222,C:\Users\Mourougan\Dropbox\GUI\Log\Regression\Assis\Assis1442311779.56.p,C:\Users\Mourougan\Dropbox\GUI\Log\Pca\Assis\Assis1442311779.56.p
0.991674967981,0.182296854988,C:\Users\Mourougan\Dropbox\GUI\Log\Indicateur\Assis\Assis1442311846.02.p,222,C:\Users\Mourougan\Dropbox\GUI\Log\Regression\Assis\Assis1442311846.02.p,C:\Users\Mourougan\Dropbox\GUI\Log\Pca\Assis\Assis1442311846.02.p
0.991674967981,0.182296854988,C:\Users\Mourougan\Dropbox\GUI\Log\Indicateur\Assis\Assis1442312179.28.p,222,C:\Users\Mourougan\Dropbox\GUI\Log\Regression\Assis\Assis1442312179.28.p,C:\Users\Mourougan\Dropbox\GUI\Log\Pca\Assis\Assis1442312179.28.p
0.991674967981,0.182296854988,C:\Users\Mourougan\Dropbox\GUI\Log\Indicateur\Assis\Assis1442312272.23.p,222,C:\Users\Mourougan\Dropbox\GUI\Log\Regression\Assis\Assis1442312272.23.p,C:\Users\Mourougan\Dropbox\GUI\Log\Pca\Assis\Assis1442312272.23.p
0.514536068145,-8.15776315163,C:\Users\Mourougan\Dropbox\GUI\Log\Indicateur\Assis\Assis1442312285.2.p,222,C:\Users\Mourougan\Dropbox\GUI\Log\Regression\Assis\Assis1442312285.2.p,C:\Users\Mourougan\Dropbox\GUI\Log\Pca\Assis\Assis1442312285.2.p
0.991674967981,0.182296854988,C:\Users\Mourougan\Dropbox\GUI\Log\Indicateur\Assis\Assis1442312328.2.p,222,C:\Users\Mourougan\Dropbox\GUI\Log\Regression\Assis\Assis1442312328.2.p,C:\Users\Mourougan\Dropbox\GUI\Log\Pca\Assis\Assis1442312328.2.p
0.991674967981,0.182296854988,C:\Users\Mourougan\Dropbox\GUI\Log\Indicateur\Assis\Assis1442312343.37.p,222,C:\Users\Mourougan\Dropbox\GUI\Log\Regression\Assis\Assis1442312343.37.p,C:\Users\Mourougan\Dropbox\GUI\Log\Pca\Assis\Assis1442312343.37.p
0.991674967981,0.182296854988,C:\Users\Mourougan\Dropbox\GUI\Log\Indicateur\Assis\Assis1442312354.97.p,222,C:\Users\Mourougan\Dropbox\GUI\Log\Regression\Assis\Assis1442312354.97.p,C:\Users\Mourougan\Dropbox\GUI\Log\Pca\Assis\Assis1442312354.97.p
0.962644087093,0.961043119397,C:\Users\Mourougan\Dropbox\GUI\Log\Indicateur\Assis\Assis1442312679.44.p,222,C:\Users\Mourougan\Dropbox\GUI\Log\Regression\Assis\Assis1442312679.44.p,C:\Users\Mourougan\Dropbox\GUI\Log\Pca\Assis\Assis1442312679.44.p
0.700554228905,0.695761705637,C:\Users\Mourougan\Dropbox\GUI\Log\Indicateur\Assis\Assis1442312698.16.p,222,C:\Users\Mourougan\Dropbox\GUI\Log\Regression\Assis\Assis1442312698.16.p,C:\Users\Mourougan\Dropbox\GUI\Log\Pca\Assis\Assis1442312698.16.p
0.960011384659,0.0400597694607,C:\Users\Mourougan\Dropbox\GUI\Log\Indicateur\Assis\Assis1442312727.27.p,222,C:\Users\Mourougan\Dropbox\GUI\Log\Regression\Assis\Assis1442312727.27.p,C:\Users\Mourougan\Dropbox\GUI\Log\Pca\Assis\Assis1442312727.27.p
0.960829657037,0.956809449267,C:\Users\Mourougan\Dropbox\GUI\Log\Indicateur\Assis\Assis1442312738.07.p,222,C:\Users\Mourougan\Dropbox\GUI\Log\Regression\Assis\Assis1442312738.07.p,C:\Users\Mourougan\Dropbox\GUI\Log\Pca\Assis\Assis1442312738.07.p
0.865008309655,0.149864636663,C:\Users\Mourougan\Dropbox\GUI\Log\Indicateur\Assis\Assis1442312762.23.p,287,C:\Users\Mourougan\Dropbox\GUI\Log\Regression\Assis\Assis1442312762.23.p,C:\Users\Mourougan\Dropbox\GUI\Log\Pca\Assis\Assis1442312762.23.p
0.866455797995,0.148899670303,C:\Users\Mourougan\Dropbox\GUI\Log\Indicateur\Assis\Assis1442312776.66.p,287,C:\Users\Mourougan\Dropbox\GUI\Log\Regression\Assis\Assis1442312776.66.p,C:\Users\Mourougan\Dropbox\GUI\Log\Pca\Assis\Assis1442312776.66.p
0.877767651316,0.879084354143,C:\Users\Mourougan\Dropbox\GUI\Log\Indicateur\Assis\Assis1442312793.54.p,287,C:\Users\Mourougan\Dropbox\GUI\Log\Regression\Assis\Assis1442312793.54.p,C:\Users\Mourougan\Dropbox\GUI\Log\Pca\Assis\Assis1442312793.54.p
0.978518096684,0.978170083523,C:\Users\Mourougan\Dropbox\GUI\Log\Indicateur\Assis\Assis1442327960.55.p,255,C:\Users\Mourougan\Dropbox\GUI\Log\Regression\Assis\Assis1442327960.55.p,C:\Users\Mourougan\Dropbox\GUI\Log\Pca\Assis\Assis1442327960.55.p
0.875978564196,0.874006025584,C:\Users\Mourougan\ownCloud\KoondalGUI\Log\Indicateur\Assis\Assis1443691056.78.p,317,C:\Users\Mourougan\ownCloud\KoondalGUI\Log\Regression\Assis\Assis1443691056.78.p,C:\Users\Mourougan\ownCloud\KoondalGUI\Log\Pca\Assis\Assis1443691056.78.p
0.451492334293,0.454556812687,C:\Users\Mourougan\ownCloud\KoondalGUI\Log\Indicateur\Assis\Assis1443691096.3.p,317,C:\Users\Mourougan\ownCloud\KoondalGUI\Log\Regression\Assis\Assis1443691096.3.p,C:\Users\Mourougan\ownCloud\KoondalGUI\Log\Pca\Assis\Assis1443691096.3.p
0.876472476724,0.874944436213,C:\Users\Mourougan\ownCloud\KoondalGUI\Log\Indicateur\Assis\Assis1443694832.12.p,317,C:\Users\Mourougan\ownCloud\KoondalGUI\Log\Regression\Assis\Assis1443694832.12.p,C:\Users\Mourougan\ownCloud\KoondalGUI\Log\Pca\Assis\Assis1443694832.12.p
0.879139604376,0.876401442189,C:\Users\Mourougan\ownCloud\KoondalGUI\Log\Indicateur\Assis\Assis1443694893.94.p,317,C:\Users\Mourougan\ownCloud\KoondalGUI\Log\Regression\Assis\Assis1443694893.94.p,C:\Users\Mourougan\ownCloud\KoondalGUI\Log\Pca\Assis\Assis1443694893.94.p
0.876077346702,0.875685286709,C:\Users\Mourougan\ownCloud\KoondalGUI\Log\Indicateur\Assis\Assis1443694916.01.p,317,C:\Users\Mourougan\ownCloud\KoondalGUI\Log\Regression\Assis\Assis1443694916.01.p,C:\Users\Mourougan\ownCloud\KoondalGUI\Log\Pca\Assis\Assis1443694916.01.p
0.824315313758,0.824196177211,C:\Users\Mourougan\ownCloud\KoondalGUI\Log\Indicateur\Assis\Assis1443700752.87.p,317,C:\Users\Mourougan\ownCloud\KoondalGUI\Log\Regression\Assis\Assis1443700752.87.p,C:\Users\Mourougan\ownCloud\KoondalGUI\Log\Pca\Assis\Assis1443700752.87.p
0.969884757556,0.969888031308,C:\Users\Tarik\ownCloud\KoondalGUI\Log\Indicateur\Assis\Assis1443714942.9.p,65,C:\Users\Tarik\ownCloud\KoondalGUI\Log\Regression\Assis\Assis1443714942.9.p,C:\Users\Tarik\ownCloud\KoondalGUI\Log\Pca\Assis\Assis1443714942.9.p
0.729180256578,0.736927926949,C:\Users\Mourougan\ownCloud\KoondalGUI\Log\Indicateur\Assis\Assis1443715377.43.p,65,C:\Users\Mourougan\ownCloud\KoondalGUI\Log\Regression\Assis\Assis1443715377.43.p,C:\Users\Mourougan\ownCloud\KoondalGUI\Log\Pca\Assis\Assis1443715377.43.p
0.732224396608,0.733775410371,C:\Users\Mourougan\ownCloud\KoondalGUI\Log\Indicateur\Assis\Assis1443715390.59.p,65,C:\Users\Mourougan\ownCloud\KoondalGUI\Log\Regression\Assis\Assis1443715390.59.p,C:\Users\Mourougan\ownCloud\KoondalGUI\Log\Pca\Assis\Assis1443715390.59.p
0.733420308763,0.740406565931,C:\Users\Mourougan\ownCloud\GUI_EXPERIMENTAL\KoondalGUI\Log\Indicateur\Assis\Assis1444319017.35.p,65,C:\Users\Mourougan\ownCloud\GUI_EXPERIMENTAL\KoondalGUI\Log\Regression\Assis\Assis1444319017.35.p,C:\Users\Mourougan\ownCloud\GUI_EXPERIMENTAL\KoondalGUI\Log\Pca\Assis\Assis1444319017.35.p
0.735485975212,0.731492553538,C:\Users\Mourougan\ownCloud\GUI_EXPERIMENTAL\KoondalGUI\Log\Indicateur\Assis\Assis1444319333.02.p,65,C:\Users\Mourougan\ownCloud\GUI_EXPERIMENTAL\KoondalGUI\Log\Regression\Assis\Assis1444319333.02.p,C:\Users\Mourougan\ownCloud\GUI_EXPERIMENTAL\KoondalGUI\Log\Pca\Assis\Assis1444319333.02.p
0.74233529028,0.72475269051,C:\Users\Mourougan\ownCloud\GUI_EXPERIMENTAL\KoondalGUI\Log\Indicateur\Assis\Assis1444319980.95.p,65,C:\Users\Mourougan\ownCloud\GUI_EXPERIMENTAL\KoondalGUI\Log\Regression\Assis\Assis1444319980.95.p,C:\Users\Mourougan\ownCloud\GUI_EXPERIMENTAL\KoondalGUI\Log\Pca\Assis\Assis1444319980.95.p
0.732985431616,0.733449287966,C:\Users\Mourougan\ownCloud\GUI_EXPERIMENTAL\KoondalGUI\Log\Indicateur\Assis\Assis1444320478.65.p,65,C:\Users\Mourougan\ownCloud\GUI_EXPERIMENTAL\KoondalGUI\Log\Regression\Assis\Assis1444320478.65.p,C:\Users\Mourougan\ownCloud\GUI_EXPERIMENTAL\KoondalGUI\Log\Pca\Assis\Assis1444320478.65.p
0.731898238748,0.733775410371,C:\Users\Mourougan\ownCloud\GUI_EXPERIMENTAL\KoondalGUI\Log\Indicateur\Assis\Assis1444320617.2.p,65,C:\Users\Mourougan\ownCloud\GUI_EXPERIMENTAL\KoondalGUI\Log\Regression\Assis\Assis1444320617.2.p,C:\Users\Mourougan\ownCloud\GUI_EXPERIMENTAL\KoondalGUI\Log\Pca\Assis\Assis1444320617.2.p
0.738747553816,0.727579084683,C:\Users\Mourougan\ownCloud\GUI_EXPERIMENTAL\KoondalGUI\Log\Indicateur\Assis\Assis1444320788.57.p,65,C:\Users\Mourougan\ownCloud\GUI_EXPERIMENTAL\KoondalGUI\Log\Regression\Assis\Assis1444320788.57.p,C:\Users\Mourougan\ownCloud\GUI_EXPERIMENTAL\KoondalGUI\Log\Pca\Assis\Assis1444320788.57.p
0.733311589476,0.737688879226,C:\Users\Mourougan\ownCloud\GUI_EXPERIMENTAL\KoondalGUI\Log\Indicateur\Assis\Assis1444320845.78.p,65,C:\Users\Mourougan\ownCloud\GUI_EXPERIMENTAL\KoondalGUI\Log\Regression\Assis\Assis1444320845.78.p,C:\Users\Mourougan\ownCloud\GUI_EXPERIMENTAL\KoondalGUI\Log\Pca\Assis\Assis1444320845.78.p
0.624226204958,0.627165917094,C:\Users\Mourougan\ownCloud\GUI_EXPERIMENTAL\KoondalGUI\Log\Indicateur\Assis\Assis1444382112.35.p,284,C:\Users\Mourougan\ownCloud\GUI_EXPERIMENTAL\KoondalGUI\Log\Regression\Assis\Assis1444382112.35.p,C:\Users\Mourougan\ownCloud\GUI_EXPERIMENTAL\KoondalGUI\Log\Pca\Assis\Assis1444382112.35.p
0.625658908442,0.618938046927,C:\Users\Mourougan\ownCloud\GUI_EXPERIMENTAL\KoondalGUI\Log\Indicateur\Assis\Assis1444382479.23.p,284,C:\Users\Mourougan\ownCloud\GUI_EXPERIMENTAL\KoondalGUI\Log\Regression\Assis\Assis1444382479.23.p,C:\Users\Mourougan\ownCloud\GUI_EXPERIMENTAL\KoondalGUI\Log\Pca\Assis\Assis1444382479.23.p
0.626766688411,0.637142857143,C:\Users\Mourougan\ownCloud\GUI_EXPERIMENTAL\KoondalGUI\Log\Indicateur\Assis\Assis1444382544.49.p,65,C:\Users\Mourougan\ownCloud\GUI_EXPERIMENTAL\KoondalGUI\Log\Regression\Assis\Assis1444382544.49.p,C:\Users\Mourougan\ownCloud\GUI_EXPERIMENTAL\KoondalGUI\Log\Pca\Assis\Assis1444382544.49.p
0.627524126186,0.631244988321,C:\Users\Mourougan\ownCloud\GUI_EXPERIMENTAL\KoondalGUI\Log\Indicateur\Assis\Assis1444382913.02.p,284,C:\Users\Mourougan\ownCloud\GUI_EXPERIMENTAL\KoondalGUI\Log\Regression\Assis\Assis1444382913.02.p,C:\Users\Mourougan\ownCloud\GUI_EXPERIMENTAL\KoondalGUI\Log\Pca\Assis\Assis1444382913.02.p
0.613829093281,0.627142857143,C:\Users\Mourougan\ownCloud\GUI_EXPERIMENTAL\KoondalGUI\Log\Indicateur\Assis\Assis1444384463.08.p,65,C:\Users\Mourougan\ownCloud\GUI_EXPERIMENTAL\KoondalGUI\Log\Regression\Assis\Assis1444384463.08.p,C:\Users\Mourougan\ownCloud\GUI_EXPERIMENTAL\KoondalGUI\Log\Pca\Assis\Assis1444384463.08.p
0.632854968471,0.644285714286,C:\Users\Mourougan\ownCloud\GUI_EXPERIMENTAL\KoondalGUI\Log\Indicateur\Assis\Assis1444384583.62.p,65,C:\Users\Mourougan\ownCloud\GUI_EXPERIMENTAL\KoondalGUI\Log\Regression\Assis\Assis1444384583.62.p,C:\Users\Mourougan\ownCloud\GUI_EXPERIMENTAL\KoondalGUI\Log\Pca\Assis\Assis1444384583.62.p
0.615025005436,0.612857142857,C:\Users\Mourougan\ownCloud\GUI_EXPERIMENTAL\KoondalGUI\Log\Indicateur\Assis\Assis1444384741.4.p,65,C:\Users\Mourougan\ownCloud\GUI_EXPERIMENTAL\KoondalGUI\Log\Regression\Assis\Assis1444384741.4.p,C:\Users\Mourougan\ownCloud\GUI_EXPERIMENTAL\KoondalGUI\Log\Pca\Assis\Assis1444384741.4.p
0.626766688411,0.615714285714,C:\Users\Mourougan\ownCloud\GUI_EXPERIMENTAL\KoondalGUI\Log\Indicateur\Assis\Assis1444384877.83.p,65,C:\Users\Mourougan\ownCloud\GUI_EXPERIMENTAL\KoondalGUI\Log\Regression\Assis\Assis1444384877.83.p,C:\Users\Mourougan\ownCloud\GUI_EXPERIMENTAL\KoondalGUI\Log\Pca\Assis\Assis1444384877.83.p
0.629702109154,0.624285714286,C:\Users\Mourougan\ownCloud\KoondalGUI\Log\Indicateur\Assis\Assis1444385185.71.p,65,C:\Users\Mourougan\ownCloud\KoondalGUI\Log\Regression\Assis\Assis1444385185.71.p,C:\Users\Mourougan\ownCloud\KoondalGUI\Log\Pca\Assis\Assis1444385185.71.p
0.618177864753,0.625714285714,C:\Users\Mourougan\ownCloud\KoondalGUI\Log\Indicateur\Assis\Assis1444402466.21.p,65,C:\Users\Mourougan\ownCloud\KoondalGUI\Log\Regression\Assis\Assis1444402466.21.p,C:\Users\Mourougan\ownCloud\KoondalGUI\Log\Pca\Assis\Assis1444402466.21.p
0.997610309806,0.996586156866,C:\Users\Mourougan\ownCloud\KoondalGUI\Log\Indicateur\Assis\Assis1445787154.26.p,88,C:\Users\Mourougan\ownCloud\KoondalGUI\Log\Regression\Assis\Assis1445787154.26.p,C:\Users\Mourougan\ownCloud\KoondalGUI\Log\Pca\Assis\Assis1445787154.26.p
0.997098233336,0.997183579415,C:\Users\Mourougan\ownCloud\KoondalGUI\Log\Indicateur\Assis\Assis1445787239.9.p,88,C:\Users\Mourougan\ownCloud\KoondalGUI\Log\Regression\Assis\Assis1445787239.9.p,C:\Users\Mourougan\ownCloud\KoondalGUI\Log\Pca\Assis\Assis1445787239.9.p
0.99743961765,0.996842195101,C:\Users\Mourougan\ownCloud\KoondalGUI\Log\Indicateur\Assis\Assis1445787269.58.p,88,C:\Users\Mourougan\ownCloud\KoondalGUI\Log\Regression\Assis\Assis1445787269.58.p,C:\Users\Mourougan\ownCloud\KoondalGUI\Log\Pca\Assis\Assis1445787269.58.p
0.99743961765,0.997524963728,C:\Users\Mourougan\ownCloud\KoondalGUI\Log\Indicateur\Assis\Assis1445787361.49.p,88,C:\Users\Mourougan\ownCloud\KoondalGUI\Log\Regression\Assis\Assis1445787361.49.p,C:\Users\Mourougan\ownCloud\KoondalGUI\Log\Pca\Assis\Assis1445787361.49.p
0.99795169412,0.997866348041,C:\Users\Mourougan\ownCloud\KoondalGUI\Log\Indicateur\Assis\Assis1445787490.42.p,88,C:\Users\Mourougan\ownCloud\KoondalGUI\Log\Regression\Assis\Assis1445787490.42.p,C:\Users\Mourougan\ownCloud\KoondalGUI\Log\Pca\Assis\Assis1445787490.42.p
0.996927541179,0.998122386276,C:\Users\Mourougan\ownCloud\KoondalGUI\Log\Indicateur\Assis\Assis1445787626.63.p,88,C:\Users\Mourougan\ownCloud\KoondalGUI\Log\Regression\Assis\Assis1445787626.63.p,C:\Users\Mourougan\ownCloud\KoondalGUI\Log\Pca\Assis\Assis1445787626.63.p
0.932622504537,0.930807622505,C:\Users\Mourougan\ownCloud\KoondalGUI\Log\Indicateur\Assis\Assis1445977982.01.p,101,C:\Users\Mourougan\ownCloud\KoondalGUI\Log\Regression\Assis\Assis1445977982.01.p,C:\Users\Mourougan\ownCloud\KoondalGUI\Log\Pca\Assis\Assis1445977982.01.p
0.99787649707,0.997621676718,C:\Users\Mourougan\ownCloud\KoondalGUI\Log\Indicateur\Assis\Assis1446050169.85.p,88,C:\Users\Mourougan\ownCloud\KoondalGUI\Log\Regression\Assis\Assis1446050169.85.p,C:\Users\Mourougan\ownCloud\KoondalGUI\Log\Pca\Assis\Assis1446050169.85.p
0.997791556952,0.997536736601,C:\Users\Mourougan\ownCloud\KoondalGUI\Log\Indicateur\Assis\Assis1446050522.01.p,88,C:\Users\Mourougan\ownCloud\KoondalGUI\Log\Regression\Assis\Assis1446050522.01.p,C:\Users\Mourougan\ownCloud\KoondalGUI\Log\Pca\Assis\Assis1446050522.01.p
0.998216257538,0.997027095897,C:\Users\Mourougan\ownCloud\KoondalGUI\Log\Indicateur\Assis\Assis1446050770.36.p,88,C:\Users\Mourougan\ownCloud\KoondalGUI\Log\Regression\Assis\Assis1446050770.36.p,C:\Users\Mourougan\ownCloud\KoondalGUI\Log\Pca\Assis\Assis1446050770.36.p
0.785186443557,0.780344856876,C:\Users\Mourougan\ownCloud\KoondalGUI\Log\Indicateur\Assis\Assis1446065578.57.p,88,C:\Users\Mourougan\ownCloud\KoondalGUI\Log\Regression\Assis\Assis1446065578.57.p,C:\Users\Mourougan\ownCloud\KoondalGUI\Log\Pca\Assis\Assis1446065578.57.p
1.0,1.0,C:\Users\Mourougan\ownCloud\KoondalGUI\Log\Indicateur\Assis\Assis1446110582.02.p,35,C:\Users\Mourougan\ownCloud\KoondalGUI\Log\Regression\Assis\Assis1446110582.02.p,C:\Users\Mourougan\ownCloud\KoondalGUI\Log\Pca\Assis\Assis1446110582.02.p
0.996391520072,0.99548940009,C:\Users\Mourougan\ownCloud\KoondalGUI\Log\Indicateur\Assis\Assis1446118837.08.p,81,C:\Users\Mourougan\ownCloud\KoondalGUI\Log\Regression\Assis\Assis1446118837.08.p,C:\Users\Mourougan\ownCloud\KoondalGUI\Log\Pca\Assis\Assis1446118837.08.p
0.995579612088,0.995308976094,C:\Users\Mourougan\ownCloud\KoondalGUI\Log\Indicateur\Assis\Assis1446126953.2.p,81,C:\Users\Mourougan\ownCloud\KoondalGUI\Log\Regression\Assis\Assis1446126953.2.p,C:\Users\Mourougan\ownCloud\KoondalGUI\Log\Pca\Assis\Assis1446126953.2.p
0.996120884078,0.99,C:\Users\Mourougan\ownCloud\KoondalGUI\Log\Indicateur\Assis\Assis1446140491.96.p,81,C:\Users\Mourougan\ownCloud\KoondalGUI\Log\Regression\Assis\Assis1446140491.96.p,C:\Users\Mourougan\ownCloud\KoondalGUI\Log\Pca\Assis\Assis1446140491.96.p
0.730035729201,0.45181648564,/home/koondal/Bureau/koondal/Log/Indicateur/Assis/Assis1447953879.38.p,177,/home/koondal/Bureau/koondal/Log/Regression/Assis/Assis1447953879.38.p,/home/koondal/Bureau/koondal/Log/Pca/Assis/Assis1447953879.38.p
