ScoreIn,ScoreOut,dicoIndicateurPickle,NombreDeTest,regressionPickle,pcaPickle
0.682926829268,0.658536585366,C:\Users\Mourougan\ownCloud\KoondalGUI\Log\Indicateur\Bimbap\Bimbap1445789854.4.p,4,C:\Users\Mourougan\ownCloud\KoondalGUI\Log\Regression\Bimbap\Bimbap1445789854.4.p,C:\Users\Mourougan\ownCloud\KoondalGUI\Log\Pca\Bimbap\Bimbap1445789854.4.p
0.634146341463,0.682926829268,C:\Users\Mourougan\ownCloud\KoondalGUI\Log\Indicateur\Bimbap\Bimbap1445790333.36.p,4,C:\Users\Mourougan\ownCloud\KoondalGUI\Log\Regression\Bimbap\Bimbap1445790333.36.p,C:\Users\Mourougan\ownCloud\KoondalGUI\Log\Pca\Bimbap\Bimbap1445790333.36.p
0,0,0,0,NONE,NONE
