ScoreIn,ScoreOut,dicoIndicateurPickle,NombreDeTest,regressionPickle,pcaPickle
0.714583450098,0.5,C:\Users\Mourougan\Dropbox\GUI\Log\Indicateur\Bonnemauvaiseleveedecharge\Bonnemauvaiseleveedecharge1441103398.6.p,2,C:\Users\Mourougan\Dropbox\GUI\Log\Regression\Bonnemauvaiseleveedecharge\Bonnemauvaiseleveedecharge1441103398.6.p,C:\Users\Mourougan\Dropbox\GUI\Log\Pca\Bonnemauvaiseleveedecharge\Bonnemauvaiseleveedecharge1441103398.6.p
0,0,0,0,NONE,NONE
