ScoreIn,ScoreOut,dicoIndicateurPickle,NombreDeTest,regressionPickle,pcaPickle
1.0,0.990072202166,C:\Users\Mourougan\Stage\Log\Indicateur\Mourougan\Mourougan1438351645.75.p,20
0.944974988631,0.782984531392,C:\Users\Mourougan\Stage\Log\Indicateur\Mourougan\Mourougan1438351765.37.p,20,C:\Users\Mourougan\Stage\Log\Regression\Mourougan\Mourougan1438351765.37.p,C:\Users\Mourougan\Stage\Log\Pca\Mourougan\Mourougan1438351765.37.p
1.0,0.990375802016,C:\Users\Mourougan\Stage\Log\Indicateur\Mourougan\Mourougan1438351798.08.p,20,C:\Users\Mourougan\Stage\Log\Regression\Mourougan\Mourougan1438351798.08.p,C:\Users\Mourougan\Stage\Log\Pca\Mourougan\Mourougan1438351798.08.p
0.928119349005,0.569168173599,C:\Users\Mourougan\Stage\Log\Indicateur\Mourougan\Mourougan1438352036.17.p,20,C:\Users\Mourougan\Stage\Log\Regression\Mourougan\Mourougan1438352036.17.p,C:\Users\Mourougan\Stage\Log\Pca\Mourougan\Mourougan1438352036.17.p
0.950338600451,0.861851015801,C:\Users\Mourougan\Stage\Log\Indicateur\Mourougan\Mourougan1438352053.3.p,20,C:\Users\Mourougan\Stage\Log\Regression\Mourougan\Mourougan1438352053.3.p,C:\Users\Mourougan\Stage\Log\Pca\Mourougan\Mourougan1438352053.3.p
0.982544786403,0.971047794118,C:\Users\Mourougan\Stage\Log\Indicateur\Mourougan\Mourougan1438352068.25.p,20,C:\Users\Mourougan\Stage\Log\Regression\Mourougan\Mourougan1438352068.25.p,C:\Users\Mourougan\Stage\Log\Pca\Mourougan\Mourougan1438352068.25.p
0.99009009009,1.0,C:\Users\Mourougan\Stage\Log\Indicateur\Mourougan\Mourougan1438358301.43.p,20,C:\Users\Mourougan\Stage\Log\Regression\Mourougan\Mourougan1438358301.43.p,C:\Users\Mourougan\Stage\Log\Pca\Mourougan\Mourougan1438358301.43.p
1.0,0.691994572592,C:\Users\Mourougan\Stage\Log\Indicateur\Mourougan\Mourougan1438360236.7.p,20,C:\Users\Mourougan\Stage\Log\Regression\Mourougan\Mourougan1438360236.7.p,C:\Users\Mourougan\Stage\Log\Pca\Mourougan\Mourougan1438360236.7.p
0.998128217127,0.840430510061,C:\Users\Mourougan\Stage\Log\Indicateur\Mourougan\Mourougan1438360257.61.p,20,C:\Users\Mourougan\Stage\Log\Regression\Mourougan\Mourougan1438360257.61.p,C:\Users\Mourougan\Stage\Log\Pca\Mourougan\Mourougan1438360257.61.p
1.0,0.37923041261,C:\Users\Mourougan\Stage\Log\Indicateur\Mourougan\Mourougan1438360283.02.p,20,C:\Users\Mourougan\Stage\Log\Regression\Mourougan\Mourougan1438360283.02.p,C:\Users\Mourougan\Stage\Log\Pca\Mourougan\Mourougan1438360283.02.p
0.988878591288,1.0,C:\Users\Mourougan\Stage\Log\Indicateur\Mourougan\Mourougan1438590599.33.p,20,C:\Users\Mourougan\Stage\Log\Regression\Mourougan\Mourougan1438590599.33.p,C:\Users\Mourougan\Stage\Log\Pca\Mourougan\Mourougan1438590599.33.p
0.98916967509,1.0,C:\Users\Mourougan\Stage\Log\Indicateur\Mourougan\Mourougan1438590615.55.p,20,C:\Users\Mourougan\Stage\Log\Regression\Mourougan\Mourougan1438590615.55.p,C:\Users\Mourougan\Stage\Log\Pca\Mourougan\Mourougan1438590615.55.p
0.938222763238,0.879184418746,C:\Users\Mourougan\Stage\Log\Indicateur\Mourougan\Mourougan1438595508.72.p,30,C:\Users\Mourougan\Stage\Log\Regression\Mourougan\Mourougan1438595508.72.p,C:\Users\Mourougan\Stage\Log\Pca\Mourougan\Mourougan1438595508.72.p
0.989993935719,0.939035486806,C:\Users\Mourougan\Stage\Log\Indicateur\Mourougan\Mourougan1438595931.42.p,30,C:\Users\Mourougan\Stage\Log\Regression\Mourougan\Mourougan1438595931.42.p,C:\Users\Mourougan\Stage\Log\Pca\Mourougan\Mourougan1438595931.42.p
0.893392960185,0.856586351176,C:\Users\Mourougan\Stage\Log\Indicateur\Mourougan\Mourougan1438598676.37.p,64,C:\Users\Mourougan\Stage\Log\Regression\Mourougan\Mourougan1438598676.37.p,C:\Users\Mourougan\Stage\Log\Pca\Mourougan\Mourougan1438598676.37.p
0.904387594683,0.752715837621,C:\Users\Mourougan\Stage\Log\Indicateur\Mourougan\Mourougan1438598739.29.p,64,C:\Users\Mourougan\Stage\Log\Regression\Mourougan\Mourougan1438598739.29.p,C:\Users\Mourougan\Stage\Log\Pca\Mourougan\Mourougan1438598739.29.p
0.85178752352,0.856563902157,C:\Users\Mourougan\Stage\Log\Indicateur\Mourougan\Mourougan1438599191.01.p,64,C:\Users\Mourougan\Stage\Log\Regression\Mourougan\Mourougan1438599191.01.p,C:\Users\Mourougan\Stage\Log\Pca\Mourougan\Mourougan1438599191.01.p
0.825163636364,0.799389002037,C:\Users\Mourougan\Stage\Log\Indicateur\Mourougan\Mourougan1438600002.8.p,64,C:\Users\Mourougan\Stage\Log\Regression\Mourougan\Mourougan1438600002.8.p,C:\Users\Mourougan\Stage\Log\Pca\Mourougan\Mourougan1438600002.8.p
0.738918401115,0.667247235043,C:\Users\Mourougan\Stage\Log\Indicateur\Mourougan\Mourougan1438600325.32.p,107,C:\Users\Mourougan\Stage\Log\Regression\Mourougan\Mourougan1438600325.32.p,C:\Users\Mourougan\Stage\Log\Pca\Mourougan\Mourougan1438600325.32.p
0.767221109466,0.809283288339,C:\Users\Mourougan\Stage\Log\Indicateur\Mourougan\Mourougan1438600437.4.p,107,C:\Users\Mourougan\Stage\Log\Regression\Mourougan\Mourougan1438600437.4.p,C:\Users\Mourougan\Stage\Log\Pca\Mourougan\Mourougan1438600437.4.p
0.879299834538,0.955760689715,C:\Users\Mourougan\Stage\Log\Indicateur\Mourougan\Mourougan1438600535.34.p,107,C:\Users\Mourougan\Stage\Log\Regression\Mourougan\Mourougan1438600535.34.p,C:\Users\Mourougan\Stage\Log\Pca\Mourougan\Mourougan1438600535.34.p
0.771401201777,0.709396499173,C:\Users\Mourougan\Stage\Log\Indicateur\Mourougan\Mourougan1438600602.9.p,107,C:\Users\Mourougan\Stage\Log\Regression\Mourougan\Mourougan1438600602.9.p,C:\Users\Mourougan\Stage\Log\Pca\Mourougan\Mourougan1438600602.9.p
0.800313506923,0.730035704955,C:\Users\Mourougan\Stage\Log\Indicateur\Mourougan\Mourougan1438600737.6.p,107,C:\Users\Mourougan\Stage\Log\Regression\Mourougan\Mourougan1438600737.6.p,C:\Users\Mourougan\Stage\Log\Pca\Mourougan\Mourougan1438600737.6.p
1.0,1.0,C:\Users\Mourougan\Stage\Log\Indicateur\Mourougan\Mourougan1438602326.96.p,107,C:\Users\Mourougan\Stage\Log\Regression\Mourougan\Mourougan1438602326.96.p,C:\Users\Mourougan\Stage\Log\Pca\Mourougan\Mourougan1438602326.96.p
0.836018462074,0.89305930506,C:\Users\Mourougan\Stage\Log\Indicateur\Mourougan\Mourougan1438602492.42.p,107,C:\Users\Mourougan\Stage\Log\Regression\Mourougan\Mourougan1438602492.42.p,C:\Users\Mourougan\Stage\Log\Pca\Mourougan\Mourougan1438602492.42.p
0.684664286336,0.669946877994,C:\Users\Mourougan\Stage\Log\Indicateur\Mourougan\Mourougan1438602640.87.p,107,C:\Users\Mourougan\Stage\Log\Regression\Mourougan\Mourougan1438602640.87.p,C:\Users\Mourougan\Stage\Log\Pca\Mourougan\Mourougan1438602640.87.p
0.920634920635,0.860697940503,C:\Users\Mourougan\Stage\Log\Indicateur\Mourougan\Mourougan1438603271.63.p,64,C:\Users\Mourougan\Stage\Log\Regression\Mourougan\Mourougan1438603271.63.p,C:\Users\Mourougan\Stage\Log\Pca\Mourougan\Mourougan1438603271.63.p
0.924083769634,0.869394435352,C:\Users\Mourougan\Stage\Log\Indicateur\Mourougan\Mourougan1438603339.0.p,30,C:\Users\Mourougan\Stage\Log\Regression\Mourougan\Mourougan1438603339.0.p,C:\Users\Mourougan\Stage\Log\Pca\Mourougan\Mourougan1438603339.0.p
0.913671373556,0.81001283697,C:\Users\Mourougan\Stage\Log\Indicateur\Mourougan\Mourougan1438603380.74.p,30,C:\Users\Mourougan\Stage\Log\Regression\Mourougan\Mourougan1438603380.74.p,C:\Users\Mourougan\Stage\Log\Pca\Mourougan\Mourougan1438603380.74.p
0.939289084618,0.99968533669,C:\Users\Mourougan\Stage\Log\Indicateur\Mourougan\Mourougan1438696338.78.p,30,C:\Users\Mourougan\Stage\Log\Regression\Mourougan\Mourougan1438696338.78.p,C:\Users\Mourougan\Stage\Log\Pca\Mourougan\Mourougan1438696338.78.p
0.907110826393,0.931774503523,C:\Users\Mourougan\Stage\Log\Indicateur\Mourougan\Mourougan1438696417.53.p,30,C:\Users\Mourougan\Stage\Log\Regression\Mourougan\Mourougan1438696417.53.p,C:\Users\Mourougan\Stage\Log\Pca\Mourougan\Mourougan1438696417.53.p
0.839251129761,0.914110429448,C:\Users\Mourougan\Stage\Log\Indicateur\Mourougan\Mourougan1438697050.96.p,30,C:\Users\Mourougan\Stage\Log\Regression\Mourougan\Mourougan1438697050.96.p,C:\Users\Mourougan\Stage\Log\Pca\Mourougan\Mourougan1438697050.96.p
0.800369117195,0.888923076923,C:\Users\Mourougan\Stage\Log\Indicateur\Mourougan\Mourougan1438697160.09.p,30,C:\Users\Mourougan\Stage\Log\Regression\Mourougan\Mourougan1438697160.09.p,C:\Users\Mourougan\Stage\Log\Pca\Mourougan\Mourougan1438697160.09.p
0.964476579692,0.998742138365,C:\Users\Mourougan\Stage\Log\Indicateur\Mourougan\Mourougan1438697222.99.p,30,C:\Users\Mourougan\Stage\Log\Regression\Mourougan\Mourougan1438697222.99.p,C:\Users\Mourougan\Stage\Log\Pca\Mourougan\Mourougan1438697222.99.p
0.997461123453,0.905744208188,C:\Users\Mourougan\Stage\Log\Indicateur\Mourougan\Mourougan1438697287.73.p,30,C:\Users\Mourougan\Stage\Log\Regression\Mourougan\Mourougan1438697287.73.p,C:\Users\Mourougan\Stage\Log\Pca\Mourougan\Mourougan1438697287.73.p
1.0,0.80212566427,C:\Users\Mourougan\Stage\Log\Indicateur\Mourougan\Mourougan1438697299.65.p,30,C:\Users\Mourougan\Stage\Log\Regression\Mourougan\Mourougan1438697299.65.p,C:\Users\Mourougan\Stage\Log\Pca\Mourougan\Mourougan1438697299.65.p
0.979585524281,0.868502475248,C:\Users\Mourougan\Stage\Log\Indicateur\Mourougan\Mourougan1438704236.49.p,30,C:\Users\Mourougan\Stage\Log\Regression\Mourougan\Mourougan1438704236.49.p,C:\Users\Mourougan\Stage\Log\Pca\Mourougan\Mourougan1438704236.49.p
0.914285714286,0.804597701149,C:\Users\Mourougan\Stage\Log\Indicateur\Mourougan\Mourougan1438769158.97.p,30,C:\Users\Mourougan\Stage\Log\Regression\Mourougan\Mourougan1438769158.97.p,C:\Users\Mourougan\Stage\Log\Pca\Mourougan\Mourougan1438769158.97.p
0.929581993569,0.882958199357,C:\Users\Mourougan\Stage\Log\Indicateur\Mourougan\Mourougan1438769221.59.p,30,C:\Users\Mourougan\Stage\Log\Regression\Mourougan\Mourougan1438769221.59.p,C:\Users\Mourougan\Stage\Log\Pca\Mourougan\Mourougan1438769221.59.p
0.759748427673,0.793081761006,C:\Users\Mourougan\Stage\Log\Indicateur\Mourougan\Mourougan1438769243.18.p,30,C:\Users\Mourougan\Stage\Log\Regression\Mourougan\Mourougan1438769243.18.p,C:\Users\Mourougan\Stage\Log\Pca\Mourougan\Mourougan1438769243.18.p
0.999679589875,0.769871794872,C:\Users\Mourougan\Stage\Log\Indicateur\Mourougan\Mourougan1438769269.3.p,30,C:\Users\Mourougan\Stage\Log\Regression\Mourougan\Mourougan1438769269.3.p,C:\Users\Mourougan\Stage\Log\Pca\Mourougan\Mourougan1438769269.3.p
0.920534011443,0.855007949126,C:\Users\Mourougan\Stage\Log\Indicateur\Mourougan\Mourougan1438770842.21.p,30,C:\Users\Mourougan\Stage\Log\Regression\Mourougan\Mourougan1438770842.21.p,C:\Users\Mourougan\Stage\Log\Pca\Mourougan\Mourougan1438770842.21.p
0.991787744788,0.98420221169,C:\Users\Mourougan\Stage\Log\Indicateur\Mourougan\Mourougan1438771526.79.p,30,C:\Users\Mourougan\Stage\Log\Regression\Mourougan\Mourougan1438771526.79.p,C:\Users\Mourougan\Stage\Log\Pca\Mourougan\Mourougan1438771526.79.p
1.0,0.823229100191,C:\Users\Mourougan\Stage\Log\Indicateur\Mourougan\Mourougan1438773828.9.p,30,C:\Users\Mourougan\Stage\Log\Regression\Mourougan\Mourougan1438773828.9.p,C:\Users\Mourougan\Stage\Log\Pca\Mourougan\Mourougan1438773828.9.p
0.99967752338,0.86939696872,C:\Users\Mourougan\Stage\Log\Indicateur\Mourougan\Mourougan1438774421.98.p,30,C:\Users\Mourougan\Stage\Log\Regression\Mourougan\Mourougan1438774421.98.p,C:\Users\Mourougan\Stage\Log\Pca\Mourougan\Mourougan1438774421.98.p
0.925194300518,0.998056994819,C:\Users\Mourougan\Stage\Log\Indicateur\Mourougan\Mourougan1438774436.97.p,30,C:\Users\Mourougan\Stage\Log\Regression\Mourougan\Mourougan1438774436.97.p,C:\Users\Mourougan\Stage\Log\Pca\Mourougan\Mourougan1438774436.97.p
0.866427171783,0.719464402351,C:\Users\Mourougan\Stage\Log\Indicateur\Mourougan\Mourougan1438777744.57.p,30,C:\Users\Mourougan\Stage\Log\Regression\Mourougan\Mourougan1438777744.57.p,C:\Users\Mourougan\Stage\Log\Pca\Mourougan\Mourougan1438777744.57.p
0.820970266041,0.771759549155,C:\Users\Mourougan\Stage\Log\Indicateur\Mourougan\Mourougan1438777786.09.p,30,C:\Users\Mourougan\Stage\Log\Regression\Mourougan\Mourougan1438777786.09.p,C:\Users\Mourougan\Stage\Log\Pca\Mourougan\Mourougan1438777786.09.p
0.933797909408,0.718631178707,C:\Users\Mourougan\Stage\Log\Indicateur\Mourougan\Mourougan1438779940.72.p,30,C:\Users\Mourougan\Stage\Log\Regression\Mourougan\Mourougan1438779940.72.p,C:\Users\Mourougan\Stage\Log\Pca\Mourougan\Mourougan1438779940.72.p
0.8413354531,0.712877583466,C:\Users\Mourougan\Stage\Log\Indicateur\Mourougan\Mourougan1438780725.65.p,30,C:\Users\Mourougan\Stage\Log\Regression\Mourougan\Mourougan1438780725.65.p,C:\Users\Mourougan\Stage\Log\Pca\Mourougan\Mourougan1438780725.65.p
0.965606748864,0.912366114898,C:\Users\Mourougan\Stage\Log\Indicateur\Mourougan\Mourougan1438780761.73.p,30,C:\Users\Mourougan\Stage\Log\Regression\Mourougan\Mourougan1438780761.73.p,C:\Users\Mourougan\Stage\Log\Pca\Mourougan\Mourougan1438780761.73.p
1.0,0.998711755233,C:\Users\Mourougan\Stage\Log\Indicateur\Mourougan\Mourougan1438780900.25.p,30,C:\Users\Mourougan\Stage\Log\Regression\Mourougan\Mourougan1438780900.25.p,C:\Users\Mourougan\Stage\Log\Pca\Mourougan\Mourougan1438780900.25.p
1.0,0.813597191191,C:\Users\Mourougan\Stage\Log\Indicateur\Mourougan\Mourougan1438781392.86.p,30,C:\Users\Mourougan\Stage\Log\Regression\Mourougan\Mourougan1438781392.86.p,C:\Users\Mourougan\Stage\Log\Pca\Mourougan\Mourougan1438781392.86.p
1.0,0.715004718465,C:\Users\Mourougan\Stage\Log\Indicateur\Mourougan\Mourougan1438781449.87.p,30,C:\Users\Mourougan\Stage\Log\Regression\Mourougan\Mourougan1438781449.87.p,C:\Users\Mourougan\Stage\Log\Pca\Mourougan\Mourougan1438781449.87.p
0.984096692112,0.657333757556,C:\Users\Mourougan\Stage\Log\Indicateur\Mourougan\Mourougan1438961183.68.p,30,C:\Users\Mourougan\Stage\Log\Regression\Mourougan\Mourougan1438961183.68.p,C:\Users\Mourougan\Stage\Log\Pca\Mourougan\Mourougan1438961183.68.p
0.940553999378,0.942403486924,C:\Users\Mourougan\Stage\Log\Indicateur\Mourougan\Mourougan1439218316.37.p,30,C:\Users\Mourougan\Stage\Log\Regression\Mourougan\Mourougan1439218316.37.p,C:\Users\Mourougan\Stage\Log\Pca\Mourougan\Mourougan1439218316.37.p
0.919877546712,0.834565033784,C:\Users\Mourougan\Stage\Log\Indicateur\Mourougan\Mourougan1439291025.37.p,76,C:\Users\Mourougan\Stage\Log\Regression\Mourougan\Mourougan1439291025.37.p,C:\Users\Mourougan\Stage\Log\Pca\Mourougan\Mourougan1439291025.37.p
0.906345364622,0.860134708482,C:\Users\Mourougan\Stage\Log\Indicateur\Mourougan\Mourougan1439295019.26.p,76,C:\Users\Mourougan\Stage\Log\Regression\Mourougan\Mourougan1439295019.26.p,C:\Users\Mourougan\Stage\Log\Pca\Mourougan\Mourougan1439295019.26.p
0.788933988464,0.809849375067,C:\Users\Mourougan\Stage\Log\Indicateur\Mourougan\Mourougan1439299758.67.p,76,C:\Users\Mourougan\Stage\Log\Regression\Mourougan\Mourougan1439299758.67.p,C:\Users\Mourougan\Stage\Log\Pca\Mourougan\Mourougan1439299758.67.p
0.986995136392,0.994184817086,C:\Users\Mourougan\Stage\Log\Indicateur\Mourougan\Mourougan1439300065.8.p,76,C:\Users\Mourougan\Stage\Log\Regression\Mourougan\Mourougan1439300065.8.p,C:\Users\Mourougan\Stage\Log\Pca\Mourougan\Mourougan1439300065.8.p
0.852884201464,0.736332328885,C:\Users\Mourougan\Stage\Log\Indicateur\Mourougan\Mourougan1439300293.88.p,76,C:\Users\Mourougan\Stage\Log\Regression\Mourougan\Mourougan1439300293.88.p,C:\Users\Mourougan\Stage\Log\Pca\Mourougan\Mourougan1439300293.88.p
1.0,0.998737772168,C:\Users\Mourougan\Stage\Log\Indicateur\Mourougan\Mourougan1439300615.39.p,76,C:\Users\Mourougan\Stage\Log\Regression\Mourougan\Mourougan1439300615.39.p,C:\Users\Mourougan\Stage\Log\Pca\Mourougan\Mourougan1439300615.39.p
0.860244882342,0.772048976468,C:\Users\Mourougan\Dropbox\GUI\Log\Indicateur\Mourougan\Mourougan1440151961.0.p,78,C:\Users\Mourougan\Dropbox\GUI\Log\Regression\Mourougan\Mourougan1440151961.0.p,C:\Users\Mourougan\Dropbox\GUI\Log\Pca\Mourougan\Mourougan1440151961.0.p
0.273260758632,0.39402959687,C:\Users\Mourougan\Dropbox\GUI\Log\Indicateur\Mourougan\Mourougan1440594212.45.p,212,C:\Users\Mourougan\Dropbox\GUI\Log\Regression\Mourougan\Mourougan1440594212.45.p,C:\Users\Mourougan\Dropbox\GUI\Log\Pca\Mourougan\Mourougan1440594212.45.p
0.5,0.5,C:\Users\Mourougan\Dropbox\GUI\Log\Indicateur\Mourougan\Mourougan1440662205.89.p,234,C:\Users\Mourougan\Dropbox\GUI\Log\Regression\Mourougan\Mourougan1440662205.89.p,C:\Users\Mourougan\Dropbox\GUI\Log\Pca\Mourougan\Mourougan1440662205.89.p
0.5,0.5,C:\Users\Mourougan\Dropbox\GUI\Log\Indicateur\Mourougan\Mourougan1440662330.51.p,234,C:\Users\Mourougan\Dropbox\GUI\Log\Regression\Mourougan\Mourougan1440662330.51.p,C:\Users\Mourougan\Dropbox\GUI\Log\Pca\Mourougan\Mourougan1440662330.51.p
0.5,0.5,C:\Users\Mourougan\Dropbox\GUI\Log\Indicateur\Mourougan\Mourougan1440662635.61.p,234,C:\Users\Mourougan\Dropbox\GUI\Log\Regression\Mourougan\Mourougan1440662635.61.p,C:\Users\Mourougan\Dropbox\GUI\Log\Pca\Mourougan\Mourougan1440662635.61.p
0.5,0.5,C:\Users\Mourougan\Dropbox\GUI\Log\Indicateur\Mourougan\Mourougan1440662737.47.p,234,C:\Users\Mourougan\Dropbox\GUI\Log\Regression\Mourougan\Mourougan1440662737.47.p,C:\Users\Mourougan\Dropbox\GUI\Log\Pca\Mourougan\Mourougan1440662737.47.p
0.484033747274,0.5,C:\Users\Mourougan\Dropbox\GUI\Log\Indicateur\Mourougan\Mourougan1440774626.23.p,228,C:\Users\Mourougan\Dropbox\GUI\Log\Regression\Mourougan\Mourougan1440774626.23.p,C:\Users\Mourougan\Dropbox\GUI\Log\Pca\Mourougan\Mourougan1440774626.23.p
0.53005072488,0.5,C:\Users\Mourougan\Dropbox\GUI\Log\Indicateur\Mourougan\Mourougan1440774835.68.p,228,C:\Users\Mourougan\Dropbox\GUI\Log\Regression\Mourougan\Mourougan1440774835.68.p,C:\Users\Mourougan\Dropbox\GUI\Log\Pca\Mourougan\Mourougan1440774835.68.p
0.528840783458,0.5,C:\Users\Mourougan\Dropbox\GUI\Log\Indicateur\Mourougan\Mourougan1440775090.93.p,228,C:\Users\Mourougan\Dropbox\GUI\Log\Regression\Mourougan\Mourougan1440775090.93.p,C:\Users\Mourougan\Dropbox\GUI\Log\Pca\Mourougan\Mourougan1440775090.93.p
0.505107968043,0.5,C:\Users\Mourougan\Dropbox\GUI\Log\Indicateur\Mourougan\Mourougan1440775509.57.p,228,C:\Users\Mourougan\Dropbox\GUI\Log\Regression\Mourougan\Mourougan1440775509.57.p,C:\Users\Mourougan\Dropbox\GUI\Log\Pca\Mourougan\Mourougan1440775509.57.p
0.506272598653,0.5,C:\Users\Mourougan\Dropbox\GUI\Log\Indicateur\Mourougan\Mourougan1441015876.28.p,256,C:\Users\Mourougan\Dropbox\GUI\Log\Regression\Mourougan\Mourougan1441015876.28.p,C:\Users\Mourougan\Dropbox\GUI\Log\Pca\Mourougan\Mourougan1441015876.28.p
0.49749577137,0.5,C:\Users\Mourougan\Dropbox\GUI\Log\Indicateur\Mourougan\Mourougan1441017316.34.p,256,C:\Users\Mourougan\Dropbox\GUI\Log\Regression\Mourougan\Mourougan1441017316.34.p,C:\Users\Mourougan\Dropbox\GUI\Log\Pca\Mourougan\Mourougan1441017316.34.p
0.494858953336,0.5,C:\Users\Mourougan\Dropbox\GUI\Log\Indicateur\Mourougan\Mourougan1441017382.04.p,256,C:\Users\Mourougan\Dropbox\GUI\Log\Regression\Mourougan\Mourougan1441017382.04.p,C:\Users\Mourougan\Dropbox\GUI\Log\Pca\Mourougan\Mourougan1441017382.04.p
