/home/koondal/KoondalApplication/GuiPRO/Log/Data/Data1453119874.71.csv
Durée: 0:00:18
Description:

Assis:  -1
Inclinaisonlaterale_Gauche-Droite:  1
Guest:  1
Paul:  -1
Tarik:  -1
Mourougan:  -1
Maxime:  -1
Agathe:  -1
Rouis:  -1
TestId:  1453119874
