/home/koondal/KoondalApplication/GuiPRO/Log/Data/Data1453119675.31.csv
Durée: 0:00:06
Description:

Assis:  -1
Inclinaisonlaterale_Gauche-Droite:  -1
Maxime:  1
Paul:  -1
Tarik:  -1
Mourougan:  -1
Agathe:  -1
Rouis:  -1
Guest:  -1
TestId:  1453119675
