/home/koondal/KoondalApplication/GuiPRO/Log/Data/Data1453071775.7.csv
Durée: 0:00:30
Description:

Assis:  1
Tarik:  1
Paul:  -1
Mourougan:  -1
Maxime:  -1
Agathe:  -1
Rouis:  -1
Guest:  -1
TestId:  1453071775
