/home/koondal/KoondalApplication/GuiPRO/Log/Data/Data1453072636.94.csv
Durée: 0:00:40
Description:

Assis:  -1
Tarik:  1
Paul:  -1
Mourougan:  -1
Maxime:  -1
Agathe:  -1
Rouis:  -1
Guest:  -1
TestId:  1453072636
