/home/koondal/KoondalApplication/GuiPRO/Log/Data/Data1449221070.88.csv
Durée: 0:00:01
Description:

Relaxbreathing_Oui-Non:  -1
Tarik:  1
Paul:  -1
Mourougan:  -1
Maxime:  -1
Agathe:  -1
Rouis:  -1
Guest:  -1
TestId:  1449221070
