/home/koondal/KoondalApplication/GuiPRO/Log/Data/Data1453913353.84.csv
Durée: 0:00:33
Description:

Assis:  1
Maxime:  1
Paul:  -1
Tarik:  -1
Mourougan:  -1
Agathe:  -1
Rouis:  -1
Guest:  -1
TestId:  1453913353
