/home/koondal/KoondalApplication/GuiPRO/Log/Data/Data1453912821.66.csv
Durée: 0:00:49
Description:

Assis:  1
Rouis:  1
Paul:  -1
Tarik:  -1
Mourougan:  -1
Maxime:  -1
Agathe:  -1
Guest:  -1
TestId:  1453912821
